sound =
{
	name = "sp_ger_wien"
	file = "sp_ger_wien.wav"

}
#sound =
#{
#	name = "microsoftxp"
#	file = "microsoftxp.wav"
#
#}

sound =
{
	name = "sp_ger_totalwar"
	file = "sp_ger_totalwar.wav"

}

sound =
{
	name = "sp_eng_finesthour"
	file = "sp_eng_finesthour.wav"

}

sound =
{
	name = "rokossovsky_moscow_battle"
	file = "rokossovsky_moscow_battle.wav"
}

sound =
{
	name = "dwightdeisenhowerddayaddress"
	file = "dwightdeisenhowerddayaddress.wav"

}

sound =
{
	name = "sp_ger_war"
	file = "sp_ger_war.wav"

}

sound =
{
	name = "usa_war"
	file = "usa_war.wav"

}

sound =
{
	name = "peace_europe"
	file = "peace_europe.wav"

}


sound =
{
	name = "untergang"
	file = "untergang.wav"

}

sound =
{
	name = "wunderwaffe"
	file = "wunderwaffe.wav"

}

sound =
{
	name = "evabrauntanzen"
	file = "evabrauntanzen.wav"

}

sound =
{
	name = "hitlerjugend"
	file = "hitlerjugend.wav"

}

sound =
{
	name = "artillerieberlin"
	file = "artillerieberlin.wav"

}

sound =
{
	name = "katyusha"
	file = "katyusha.wav"

}