
GDU_Afrika_Score_Category = {

	############################
	## Axis Mission Selection ##
	############################
	
	GER_Afrika_Spirit_Tester = {

		icon = generic_operation  

		allowed = { 
			OR = { 
				original_tag = GER
				original_tag = ITA
				original_tag = ENG
			}
		}
		available = {
			
		}
		visible = {
			SOV = { is_ai = yes }
		}
		
		priority = 500

		fire_only_once = yes

		cost = 0

		complete_effect = {
			GER = { add_dynamic_modifier = { modifier = axis_afrika_modifier_spirit } }
			ITA = { add_dynamic_modifier = { modifier = axis_afrika_modifier_spirit } }
			ROM = { add_dynamic_modifier = { modifier = axis_afrika_modifier_spirit } }
			HUN = { add_dynamic_modifier = { modifier = axis_afrika_modifier_spirit } }
			BUL = { add_dynamic_modifier = { modifier = axis_afrika_modifier_spirit } }
			
			ENG = { add_dynamic_modifier = { modifier = allied_afrika_modifier_spirit } }
			AST = { add_dynamic_modifier = { modifier = allied_afrika_modifier_spirit } }
			NZL = { add_dynamic_modifier = { modifier = allied_afrika_modifier_spirit } }
			SAF = { add_dynamic_modifier = { modifier = allied_afrika_modifier_spirit } }
			CAN = { add_dynamic_modifier = { modifier = allied_afrika_modifier_spirit } }
			RAJ = { add_dynamic_modifier = { modifier = allied_afrika_modifier_spirit } }
			USA = { add_dynamic_modifier = { modifier = allied_afrika_modifier_spirit } }
			SOV	= { add_dynamic_modifier = { modifier = soviet_afrika_modifier_spirit } }
		}
	}
	
	GER_Afrika_Axis_Select = {

		icon = generic_operation  

		allowed = { 
			original_tag = GER
		}
		available = {
			custom_trigger_tooltip = {
				tooltip = GDU_Afrika_Score_Mission_Conditions_tt		
				OR = { 
					FROM = { is_fully_controlled_by = ENG }
					FROM = { is_fully_controlled_by = USA }
					FROM = { is_fully_controlled_by = CAN }
					FROM = { is_fully_controlled_by = SAF }
					FROM = { is_fully_controlled_by = AST }
					FROM = { is_fully_controlled_by = NZL }
					FROM = { is_fully_controlled_by = RAJ }
					FROM = { is_fully_controlled_by = FRF }
				} 
			}
		}
		visible = {
			tag = GER
			NOT = { has_global_flag = Axis_Afrika_Mission_Ongoing }
		}
		days_remove = 14
		priority = 100
		state_target = yes
		targets = { 446 447 452 183 182 454 291 116 }
		target_trigger = {
			FROM = {
				NOT = { has_state_flag = Axis_Africa_Mission_Exhausted }
				OR = {
					is_fully_controlled_by = ENG
					is_fully_controlled_by = USA
					is_fully_controlled_by = FRF
					is_fully_controlled_by = CAN
					is_fully_controlled_by = SAF
					is_fully_controlled_by = AST
					is_fully_controlled_by = NZL
					is_fully_controlled_by = RAJ
				}
				OR = {
					is_island_state = yes
					any_neighbor_state = {
						OR = {
							is_controlled_by = ITA
							is_controlled_by = GER
							is_controlled_by = ROM
							is_controlled_by = HUN
							is_controlled_by = BUL
						}
					}
					state = 182
					state = 183
				}
			}
		}
		highlight_state_targets = { state = FROM }
		highlight_color_while_active = 1

		fire_only_once = yes

		cost = 50

		complete_effect = {
			hidden_effect = {
				# activate_mission = GER_Afrika_Mission
				set_global_flag = Axis_Afrika_Mission_Ongoing
				FROM = { set_state_flag = Axis_Africa_Mission_Target }
				
				every_country = {
					limit = {
						#is_in_faction_with_axis = yes
						is_in_faction_with_allies = yes
					}
					country_event = { id = gduevents.68 }
				}
			}
		}
		
		remove_effect = {
			custom_effect_tooltip = GDU_Afrika_Score_Mission_Selection_tt
			hidden_effect = {
				FROM = { set_state_flag = Axis_Africa_Mission_Exhausted }
				FROM = { clr_state_flag = Axis_Africa_Mission_Target }
				clr_global_flag = Axis_Afrika_Mission_Ongoing
				
				if = {
					limit = { 
						FROM = { 
							OR = {
								is_controlled_by = ITA
								is_controlled_by = GER
								is_controlled_by = ROM
								is_controlled_by = HUN
								is_controlled_by = BUL
							}
						}
					}
					add_to_variable = { GER.Afrika_score_value = 10 }
				}
				else = {
					add_to_variable = { ENG.Afrika_score_value = 10 }
				}
			}
		}
	}
	
	
	GER_Afrika_Allies_Select = {

		icon = generic_operation  

		allowed = { 
			original_tag = ENG
		}
		available = {
			custom_trigger_tooltip = {
				tooltip = GDU_Afrika_Score_Mission_Conditions_tt		
				OR = { 
					FROM = { is_fully_controlled_by = GER }
					FROM = { is_fully_controlled_by = ITA }
					FROM = { is_fully_controlled_by = ROM }
					FROM = { is_fully_controlled_by = HUN }
					FROM = { is_fully_controlled_by = BUL }
				} 
			}
		}
		visible = {
			tag = ENG
			NOT = { has_global_flag = Allies_Afrika_Mission_Ongoing }
		}
		
		priority = 100
		state_target = yes
		targets = { 663 451 450 164 271 115 114 117 182 }
		target_trigger = {
			FROM = {
				NOT = { has_state_flag = Allies_Africa_Mission_Exhausted }
				OR = {
					is_fully_controlled_by = GER
					is_fully_controlled_by = ITA
					is_fully_controlled_by = ROM
					is_fully_controlled_by = HUN
					is_fully_controlled_by = BUL
				}
				OR = {
					is_island_state = yes
					any_neighbor_state = {
						is_controlled_by_allied_country = yes 
					}
					AND = {
						state = 115
						458 = { is_controlled_by_allied_country = yes }
						116 = { is_controlled_by_allied_country = yes}
					}
					AND = {
						state = 114
						458 = { is_controlled_by_allied_country = yes }
						115 = { is_controlled_by_allied_country = yes }
					}
					AND = {
						state = 117
						115 = { is_controlled_by_allied_country = yes }
						114 = { is_controlled_by_allied_country = yes }
					}
				}
			}
		}
		highlight_state_targets = { state = FROM }
		highlight_color_while_active = 1

		fire_only_once = yes

		cost = 50
		
		complete_effect = {
			hidden_effect = {
				# activate_mission = GER_Afrika_Mission
				set_global_flag = Allies_Afrika_Mission_Ongoing
				FROM = { set_state_flag = Allies_Africa_Mission_Target }
				
				every_country = {
					limit = {
						is_in_faction_with_axis = yes
						#is_in_faction_with_allies = yes
					}
					country_event = { id = gduevents.68 }
				}
			}
		}
		
		remove_effect = {
			custom_effect_tooltip = GDU_Afrika_Score_Mission_Selection_tt
			hidden_effect = {
				FROM = { set_state_flag = Allies_Africa_Mission_Exhausted }
				FROM = { clr_state_flag = Allies_Africa_Mission_Target }
				clr_global_flag = Allies_Afrika_Mission_Ongoing
				
				if = {
					limit = { 
						FROM = { 
							OR = {
								is_controlled_by = ENG
								is_controlled_by = FRF
								is_controlled_by = USA
								is_controlled_by = CAN
								is_controlled_by = SAF
								is_controlled_by = AST
								is_controlled_by = NZL
								is_controlled_by = RAJ
							}
						}
					}
					add_to_variable = { ENG.Afrika_score_value = 10 }
				}
				else = {
					add_to_variable = { GER.Afrika_score_value = 10 }
				}
			}
		}
	}
	
	
	############################
	##	AXIS AFRIKA PURCHASES ##
	############################
	
	GER_Afrika_Purchase1 = {
		icon = hol_attract_foreign_investors

		allowed = {
			is_in_faction_with_axis = yes
		}

		available = {
			check_variable = { var = ROOT.Afrika_score_value value = 9 compare = greater_than }
			original_tag = GER
		}
		custom_cost_trigger = {	
			check_variable = { var = ROOT.Afrika_score_value value = 9 compare = greater_than }
		}
		custom_cost_text = afrika_xp_more_than_10
		
		visible = {
			is_in_faction_with_axis = yes
		}
		
		fire_only_once = no

		complete_effect = {
			custom_effect_tooltip = ger_afrika_purchase1_tt
			hidden_effect = {
				subtract_from_variable = { GER.Afrika_score_value = 10 }
				add_to_variable = { GER.axis_afrika_modifier_bonus = 0.01 }
				clamp_variable = { var = GER.axis_afrika_modifier_bonus min = 0 max = 0.1 }
			}
		}	
	}

	GER_Afrika_Purchase2 = {
		icon = hol_attract_foreign_investors

		allowed = {
			is_in_faction_with_axis = yes
		}

		available = {
			check_variable = { var = ROOT.Afrika_score_value value = 24 compare = greater_than }
			original_tag = GER
		}
		custom_cost_trigger = {	
			check_variable = { var = ROOT.Afrika_score_value value = 24 compare = greater_than }
		}
		custom_cost_text = afrika_xp_more_than_25
		
		visible = {
			is_in_faction_with_axis = yes
		}
		
		fire_only_once = no

		complete_effect = {
			custom_effect_tooltip = ger_afrika_purchase2_tt
			hidden_effect = {
				subtract_from_variable = { GER.Afrika_score_value = 25 }
				subtract_from_variable = { ENG.allied_afrika_modifier_bonus = 0.01 }
				subtract_from_variable = { SOV.soviet_afrika_defense_bonus = 0.001 }
				clamp_variable = { var = ENG.allied_afrika_modifier_bonus min = 0 max = 0.1 }
				clamp_variable = { var = SOV.soviet_afrika_defense_bonus min = 0 max = 0.01 }
			}
		}	
	}
	
	
	##############################
	##	ALLIED AFRIKA PURCHASES ##
	##############################
	
	ENG_Afrika_Purchase1 = {
		icon = hol_attract_foreign_investors

		allowed = {
			is_in_faction_with_allies = yes
		}
		available = {
			check_variable = { var = ROOT.Afrika_score_value value = 9 compare = greater_than }
			original_tag = ENG
		}
		custom_cost_trigger = {	
			check_variable = { var = ROOT.Afrika_score_value value = 9 compare = greater_than }
		}
		custom_cost_text = afrika_xp_more_than_10
		
		visible = {
			is_in_faction_with_allies = yes
		}
		
		fire_only_once = no
		
		modifier = {
			
		}
		
		complete_effect = {
			custom_effect_tooltip = eng_afrika_purchase1_tt
			hidden_effect = {
				subtract_from_variable = { ROOT.Afrika_score_value = 10 } 
				add_to_variable = { ENG.allied_afrika_modifier_bonus = 0.01 }
				add_to_variable = { SOV.soviet_afrika_defense_bonus = 0.001 }
				clamp_variable = { var = ENG.allied_afrika_modifier_bonus min = 0 max = 0.1 }
				clamp_variable = { var = SOV.soviet_afrika_defense_bonus min = 0 max = 0.01 }				
			}
		}	
	}
	
	ENG_Afrika_Purchase2 = {
		icon = hol_attract_foreign_investors

		allowed = {
			is_in_faction_with_allies = yes
		}

		available = {
			check_variable = { var = ROOT.Afrika_score_value value = 24 compare = greater_than }
			original_tag = ENG
		}
		custom_cost_trigger = {	
			check_variable = { var = ROOT.Afrika_score_value value = 24 compare = greater_than }
		}
		custom_cost_text = afrika_xp_more_than_25
		
		visible = {
			is_in_faction_with_allies = yes
		}
		
		fire_only_once = no

		complete_effect = {
			custom_effect_tooltip = eng_afrika_purchase2_tt
			hidden_effect = {
				subtract_from_variable = { ENG.Afrika_score_value = 25 }
				subtract_from_variable = { GER.axis_afrika_modifier_bonus = 0.01 }
				clamp_variable = { var = GER.axis_afrika_modifier_bonus min = 0 max = 0.1 }
			}
		}	
	}	
	
	ENG_Afrika_Purchase_tankbonus = {
		icon = hol_attract_foreign_investors

		allowed = {
			is_in_faction_with_allies = yes
		}
		available = {
			check_variable = { var = ROOT.Afrika_score_value value = 9 compare = greater_than }
			original_tag = ENG
		}
		visible = {
			is_in_faction_with_allies = yes
		}
		
		custom_cost_text = afrika_xp_more_than_10 
		custom_cost_trigger = {	
			check_variable = { var = ROOT.Afrika_score_value value = 9 compare = greater_than }
		}
		 
		target_array = ENG.subjects
		target_trigger = {
			FROM = { 
				OR = {
					is_subject_of = ENG 
					tag = ENG
				}
			}
		}
		
		fire_only_once = no
		days_remove = -1

		complete_effect = {
			custom_effect_tooltip = eng_afrika_armorpurchase_tt
			hidden_effect = {
				subtract_from_variable = { ROOT.Afrika_score_value = 10 }
				FROM = { 
					add_tech_bonus = {
						bonus = 1.00
						uses = 1
						name = mech_army_bonus
						technology = advanced_light_tank
						technology = advanced_medium_tank
						technology = advanced_heavy_tank
					}
				}
			}			
		}
	}
}
