focus_tree = {
	id = british_focus

	country = {
		factor = 0

		modifier = {
			add = 10
			tag = ENG
		}
	}

	default = no				

	focus = {
		id = ENG_remove_nonavyallies
		icon = GFX_goal_generic_occupy_start_war
		x = 15
		y = 1

		cost = 0.1

		ai_will_do = {
			factor = 4
		}

		available = {

			JAP = { has_completed_focus = JAP_nonavyallies }
					OR = {
						USA = { num_of_naval_factories > 200 }					
						AND = {
							USA = { num_of_naval_factories > 175 }
							ENG = { num_of_naval_factories > 25 }
						}					
						AND = {
							USA = { num_of_naval_factories > 150 }
							ENG = { num_of_naval_factories > 50 }
						}
						AND = {
							USA = { num_of_naval_factories > 125 }
							ENG = { num_of_naval_factories > 75 }
						}
						AND = {
							USA = { num_of_naval_factories > 100 }
							ENG = { num_of_naval_factories > 100 }
						}
						AND = {
							USA = { num_of_naval_factories > 75 }
							ENG = { num_of_naval_factories > 125 }
						}					
						AND = {
							USA = { num_of_naval_factories > 50 }
							ENG = { num_of_naval_factories > 150 }
						}
						AND = {
							USA = { num_of_naval_factories > 25 }
							ENG = { num_of_naval_factories > 175 }
						}
						ENG = { num_of_naval_factories > 200 }
										
					}

		}

		bypass = {

		}

		cancel_if_invalid = no
		continue_if_invalid = yes
		available_if_capitulated = no

		complete_tooltip = {

		}

		completion_reward = {
			JAP = { remove_ideas = JAP_nonavyallies }
		}
	}

	focus = {
		id = ENG_begin_canadian_exile
		icon = GFX_goal_generic_demand_territory
		x = 15
		y = 0
		cost = 5

		available = {
			ENG = { has_capitulated = yes }
		}

		available_if_capitulated = yes

		completion_reward = {
				if = {
					limit = {
						331 = {
							OR = {
								is_fully_controlled_by = USA
								is_fully_controlled_by = ENG								
							}
						}					
					}
					ENG = { transfer_state = 331 }
					331 = { add_extra_state_shared_building_slots = 15 }					
				}
				if = {
					limit = {
						464 = {
							is_fully_controlled_by = CAN
						}					
					}
					ENG = { transfer_state = 464 }
					464 = { add_extra_state_shared_building_slots = 15 }
					ENG = { set_capital = 464 }
				}
				if = {
					limit = {
						465 = {
							is_fully_controlled_by = CAN
						}					
					}
					ENG = { transfer_state = 465 }
					465 = { add_extra_state_shared_building_slots = 15 }
				}				
				if = {
					limit = {
						466 = {
							is_fully_controlled_by = CAN
						}					
					}
					ENG = { transfer_state = 466 }
					466 = { add_extra_state_shared_building_slots = 15 }
				}
				ENG = {
					add_ideas = ENG_Canadian_exile
					add_timed_idea = { idea = ENG_retrain days = 90 }
				}
				ENG = { add_equipment_to_stockpile = { type = infantry_equipment_0 amount = 5000 producer = ENG } }
		}
	}				

	focus = {
		id = crypto_bomb_focus
		prerequisite = { focus = limited_rearmament_focus }
		available = {
				has_war_with = GER
				POL = {
					NOT = { is_in_faction_with = GER } #We assume POL will help vs Germany unless they are allied to them
				}
			}

		bypass = {
			OR = {
				AND = {
					has_war_with = GER
					POL = {
							is_in_faction_with = GER # If POL is in GER's faction, no help for us
						}
				}
				AND = {
					has_war = yes
					is_in_faction_with = USA
				}
				GER = { exists = no }
			}
		}

		icon = GFX_focus_generic_cryptologic_bomb
		x = 1
		y = 1
		cost = 10
		ai_will_do = {
			factor = 1
		}

		available_if_capitulated = yes

		completion_reward = {
			add_tech_bonus = {
				name = codebreaking_bonus
				bonus = 1.0
				uses = 3
				category = decryption_tech
				category = computing_tech
			}
		}
	}

	focus = {
		id = tizard_mission_focus
		available = {
			has_government = democratic
			any_other_country = {
				has_war_with = ROOT
				NOT = { has_government = democratic }
				num_of_factories > 30
			}
			NOt = {
				has_war_with = USA
			}
			USA = {
				has_government = ROOT
				has_war = no
				NOT = {
					OR = {
						has_idea = undisturbed_isolation
						has_idea = isolation
					}
				}
			}

		}
		prerequisite = { focus = crypto_bomb_focus }
		icon = GFX_ENG_tizard
		x = 0
		y = 1
		relative_position_id = crypto_bomb_focus
		cost = 10
		ai_will_do = {
			factor = 1
		}
		completion_reward = {
			USA = {
				country_event = britain.1
			}
		}
	}
	focus = {
		id = maud_focus
		available = { is_in_faction_with = USA }
		prerequisite = { focus = tizard_mission_focus }
		icon = GFX_focus_wonderweapons
		x = 0
		y = 1
		relative_position_id = tizard_mission_focus
		cost = 10
		ai_will_do = {
			factor = 1
		}

		available_if_capitulated = yes

		completion_reward = {
			add_tech_bonus = {
				name = maud_focus
				bonus = 1.0
				uses = 1
				category = nuclear
			}
			
		}
	}


	focus = {
		id = limited_rearmament_focus
		icon = GFX_Limited_Rearm
		x = 5
		y = 0
		cost = 10
		ai_will_do = {
			factor = 1
		}

		bypass = {

		}

		available_if_capitulated = yes

		complete_tooltip = {
			122 = {
				add_extra_state_shared_building_slots = 2
				add_building_construction = {
					type = industrial_complex
					level = 2
					instant_build = yes
				}
			}
			123 = {
				add_extra_state_shared_building_slots = 2
				add_building_construction = {
					type = industrial_complex
					level = 2
					instant_build = yes
				}
			}
		}

		completion_reward = {
			122 = {
				add_extra_state_shared_building_slots = 2
				add_building_construction = {
					type = industrial_complex
					level = 2
					instant_build = yes
				}
			}
			123 = {
				add_extra_state_shared_building_slots = 2
				add_building_construction = {
					type = industrial_complex
					level = 2
					instant_build = yes
				}
			}
		}
	}
	focus = {
		id = ENG_motorized_focus
		prerequisite = { focus = limited_rearmament_focus }
		available = {
		}
		icon = GFX_goal_generic_army_motorized
		x = 2
		y = 1
		relative_position_id = limited_rearmament_focus
		cost = 10
		ai_will_do = {
			factor = 1
		}

		available_if_capitulated = yes

		completion_reward = {
			add_tech_bonus = {
				name = armor_bonus
				bonus = 1.25
				uses = 1
				category = motorized_equipment
			}
		}
	}
	focus = {
		id = ENG_tank_focus
		prerequisite = { focus = limited_rearmament_focus }
		icon = GFX_Royal_Tank
		x = 0
		y = 1
		relative_position_id = limited_rearmament_focus
		cost = 10
		ai_will_do = {
			factor = 1
		}

		available = {
			OR = {
				GER = { has_completed_focus = GER_anschluss }
				GER = { has_completed_focus = GER_army_innovation }
				GER = { has_completed_focus = GER_air_innovation }
				GER = { has_completed_focus = GER_naval_rearmament }
				GER = { has_completed_focus = GER_naval_rearmament_alt }
				ITA = { has_completed_focus = ITA_modernized_artillery }				
			}
		}

		available_if_capitulated = yes

		completion_reward = {
			army_experience = 50		
			add_tech_bonus = {
				name = medium1_bonus
				bonus = 0.5
				technology = basic_medium_tank
			}		
			add_tech_bonus = {
				name = UK_tank
				bonus = 0.35
				uses = 1
				technology = improved_medium_tank
			}
			add_tech_bonus = {
				name = UK_tank
				bonus = 0.6
				uses = 2
				technology = improved_heavy_tank
				technology = advanced_light_tank
			}
			add_tech_bonus = {
				name = UK_tank
				bonus = 1.1
				uses = 3
				technology = advanced_medium_tank
				technology = advanced_heavy_tank
				technology = advanced_light_tank_a				
			}

		}
	}

	focus = {
		id = uk_empire_focus
		available = {
			NOT = { has_government = communism }
			num_subjects > 0
		}
		icon = GFX_focus_eng_imperial_federation
		x = 26
		y = 0
		cost = 5
		ai_will_do = {
			factor = 1
		}

		available_if_capitulated = yes

		completion_reward = {
			add_stability = 0.1
		}
	}

	focus = {
		id = shadow_scheme_focus
		prerequisite = { focus = uk_empire_focus }
		available = {

		}

		continue_if_invalid = yes
		available_if_capitulated = yes

		icon = GFX_ENG_royal_army
		x = -6
		y = 1
		relative_position_id = uk_empire_focus
		cost = 10
		ai_will_do = {
			factor = 1
		}
		completion_reward = {
			custom_effect_tooltip = shadow_scheme_focus_tt
			134 = {
				add_extra_state_shared_building_slots = 1
				add_building_construction = {
					type = arms_factory
					level = 1
					instant_build = yes
				}
				set_state_flag = shadow_scheme_1mil
			}
			128 = {
				add_extra_state_shared_building_slots = 1
				add_building_construction = {
					type = arms_factory
					level = 1
					instant_build = yes
				}
				set_state_flag = shadow_scheme_1mil
			}
			338 = {
				add_extra_state_shared_building_slots = 1
				add_building_construction = {
					type = arms_factory
					level = 1
					instant_build = yes
				}
				set_state_flag = shadow_scheme_1mil
			}
			132 = {
				add_extra_state_shared_building_slots = 1
				add_building_construction = {
					type = arms_factory
					level = 1
					instant_build = yes
				}
				set_state_flag = shadow_scheme_1mil
			}				
			add_ideas = wartime_industry_focus
			add_war_support = 0.05
			custom_effect_tooltip = GDU_homedefense_tt
			# Ipswich
		   hidden_effect = {
			135 = {
				if = {
					limit = { is_controlled_by = ROOT }
					#Dover
					add_building_construction = {
						type = bunker
						level = 5
						province = 3501
						instant_build = yes
					}
					add_building_construction = {
						type = bunker
						level = 5
						province = 931
						instant_build = yes
					}
					add_building_construction = {
						type = coastal_bunker
						level = 5
						province = 3501
						instant_build = yes
					}
					add_building_construction = {
						type = coastal_bunker
						level = 5
						province = 931
						instant_build = yes
					}
					add_building_construction = {
						type = coastal_bunker
						level = 5
						province = 3032
						instant_build = yes
					}
				}
			}
			125 = {
				if = {
					limit = { is_controlled_by = ROOT }
					#Plymouth
					add_building_construction = {
						type = bunker
						level = 5
						province = 271
						instant_build = yes
					}
					add_building_construction = {
						type = coastal_bunker
						level = 5
						province = 221
						instant_build = yes
					}
					add_building_construction = {
						type = coastal_bunker
						level = 5
						province = 322
						instant_build = yes
					}
				}
			}
			# Greater London Area
			126 = {
				if = {
					limit = { is_controlled_by = ROOT }
					#London
					add_building_construction = {
						type = bunker
						level = 5
						province = 3209
						instant_build = yes
					}
					add_building_construction = {
						type = bunker
						level = 5
						province = 6818
						instant_build = yes
					}
					add_building_construction = {
						type = bunker
						level = 5
						province = 6103
						instant_build = yes
					}
				}
			}
			# Sussex
			127 = {
				if = {
					limit = { is_controlled_by = ROOT }
					#Portsmouth
					add_building_construction = {
						type = coastal_bunker
						level = 5
						province = 6050
						instant_build = yes
					}
					add_building_construction = {
						type = coastal_bunker
						level = 5
						province = 6489
						instant_build = yes
					}
				}
			}
			# Cornwall
			123 = {
				if = {
					limit = { is_controlled_by = ROOT }
					#Plymouth
					add_building_construction = {
						type = bunker
						level = 5
						province = 540
						instant_build = yes
					}
					add_building_construction = {
						type = coastal_bunker
						level = 5
						province = 3463
						instant_build = yes
					}
					add_building_construction = {
						type = coastal_bunker
						level = 5
						province = 6526
						instant_build = yes
					}
					add_building_construction = {
						type = coastal_bunker
						level = 5
						province = 3422
						instant_build = yes
					}
				}
			}
			338 = {
				if = {
					limit = { is_controlled_by = ROOT }
					add_building_construction = {
						type = coastal_bunker
						level = 5
						province = 3369
						instant_build = yes
					}
					add_building_construction = {
						type = bunker
						level = 5
						province = 3369
						instant_build = yes
					}
					add_building_construction = {
						type = bunker
						level = 5
						province = 6221
						instant_build = yes
					}
					add_building_construction = {
						type = coastal_bunker
						level = 5
						province = 6378
						instant_build = yes
					}
					add_building_construction = {
						type = bunker
						level = 3
						province = 6378
						instant_build = yes
					}
					add_building_construction = {
						type = coastal_bunker
						level = 5
						province = 377
						instant_build = yes
					}
				}
			}
			130 = {
				if = {
					limit = { is_controlled_by = ROOT }
					add_building_construction = {
						type = coastal_bunker
						level = 4
						province = 3628
						instant_build = yes
					}
					add_building_construction = {
						type = coastal_bunker
						level = 4
						province = 3545
						instant_build = yes
					}
					add_building_construction = {
						type = bunker
						level = 4
						province = 3628
						instant_build = yes
					}
				}
			}
			129 = {
				if = {
					limit = { is_controlled_by = ROOT }
					add_building_construction = {
						type = coastal_bunker
						level = 4
						province = 6800
						instant_build = yes
					}
				}
			}
			131 = {
				if = {
					limit = { is_controlled_by = ROOT }
					add_building_construction = {
						type = bunker
						level = 5
						province = 219
						instant_build = yes
					}
				}
				if = {
					limit = { is_controlled_by = ROOT }
					add_building_construction = {
						type = bunker
						level = 5
						province = 3437
						instant_build = yes
					}
				}
				if = {
					limit = { is_controlled_by = ROOT }
					add_building_construction = {
						type = bunker
						level = 5
						province = 351
						instant_build = yes
					}
				}
				if = {
					limit = { is_controlled_by = ROOT }
					add_building_construction = {
						type = coastal_bunker
						level = 4
						province = 351
						instant_build = yes
					}
				}
				if = {
					limit = { is_controlled_by = ROOT }
					add_building_construction = {
						type = coastal_bunker
						level = 4
						province = 3725
						instant_build = yes
					}
				}
				if = {
					limit = { is_controlled_by = ROOT }
					add_building_construction = {
						type = coastal_bunker
						level = 4
						province = 3624
						instant_build = yes
					}
				}

			}
			121 = {
				if = {
					limit = { is_controlled_by = ROOT }
					add_building_construction = {
						type = coastal_bunker
						level = 4
						province = 6300
						instant_build = yes
					}
					add_building_construction = {
						type = bunker
						level = 4
						province = 6300
						instant_build = yes
					}
					add_building_construction = {
						type = coastal_bunker
						level = 4
						province = 6200
						instant_build = yes
					}
					add_building_construction = {
						type = coastal_bunker
						level = 4
						province = 3150
						instant_build = yes
					}
					add_building_construction = {
						type = bunker
						level = 5
						province = 6179
						instant_build = yes
					}
				}

			}
			133 = {
				if = {
					limit = { is_controlled_by = ROOT }
					add_building_construction = {
						type = bunker
						level = 5
						province = 6320
						instant_build = yes
					}
					add_building_construction = {
						type = bunker
						level = 5
						province = 6821
						instant_build = yes
					}
				}

			}
			120 = {
				if = {
					limit = { is_controlled_by = ROOT }
					add_building_construction = {
						type = coastal_bunker
						level = 5
						province = 4036
						instant_build = yes
					}
					add_building_construction = {
						type = coastal_bunker
						level = 5
						province = 427
						instant_build = yes
					}
					add_building_construction = {
						type = bunker
						level = 5
						province = 427
						instant_build = yes
					}
					add_building_construction = {
						type = coastal_bunker
						level = 4
						province = 3159
						instant_build = yes
					}
					add_building_construction = {
						type = coastal_bunker
						level = 4
						province = 131
						instant_build = yes
					}
				}
			}
		   }

		}
	}

	focus = {
		id = uk_industrial_focus
		text = industrial_effort
		prerequisite = { focus = limited_rearmament_focus }
		icon = GFX_goal_generic_construct_civ_factory
		x = -2
		y = 1
		relative_position_id = limited_rearmament_focus
		cost = 10
		ai_will_do = {
			factor = 1
		}

		available_if_capitulated = yes

		completion_reward = {
			add_tech_bonus = {
				name = industrial_bonus
				bonus = 1.5
				uses = 2
				technology = concentrated_industry4
				technology = assembly_line_production
			}
		}
	}

	focus = {
		id = uk_extra_tech_slot
		text = extra_tech_slot
		icon = GFX_focus_research
		prerequisite = { focus = uk_industrial_focus }
		x = 0
		y = 1
		relative_position_id = uk_industrial_focus
		cost = 10

		available_if_capitulated = yes

		completion_reward = {
			add_research_slot = 1
		}
	}

	focus = {
		id = general_rearmament_focus
		prerequisite = { focus = limited_rearmament_focus }
		available = {
			if = {
				limit = {
					has_dlc = "Man the Guns"
				}
				OR = {
					threat > 0.1
					has_war = yes
					date > 1938.2.1
				}
			}
			if = {
				limit = {
					NOT = { has_dlc = "Man the Guns" }
				}
				OR = {
					threat > 0.1
					has_war = yes
				}
			}
		}

		continue_if_invalid = yes

		icon = GFX_General_Rearm
		x = 4
		y = 1
		relative_position_id = limited_rearmament_focus
		cost = 5
		ai_will_do = {
			factor = 1
		}
		completion_reward = {
			add_ideas = british_austerity_idea
			131 = {
				add_extra_state_shared_building_slots = 1
				add_building_construction = {
					type = industrial_complex
					level = 1
					instant_build = yes
				}
			}			
		}
	}

	focus = {
		id = ENG_special_air_service
		prerequisite = { focus = general_rearmament_focus }
		available = {

		}

		continue_if_invalid = yes

		icon = GFX_Generic_ENG_SAS
		x = 0
		y = 1
		relative_position_id = general_rearmament_focus
		cost = 5
		ai_will_do = {
			factor = 1
		}
		completion_reward = {
			custom_effect_tooltip = available_political_advisor
			show_ideas_tooltip = ENG_david_stirling
			add_tech_bonus = {
				name = ENG_inf
				uses = 1
				bonus = 0.5
				technology = improved_infantry_weapons
				technology = improved_infantry_weapons_2
			}

		}
	}

	focus = {
		id = royal_dockyard_focus
		text = "Royal Naval Dockyards"
		mutually_exclusive = { focus = royal_ordinance_focus }
		available = {

		} 
		prerequisite = { focus = uk_extra_tech_slot }
		icon = GFX_royal_navy
		x = -1
		y = 2
		relative_position_id = uk_extra_tech_slot
		cost = 10
		ai_will_do = {
			factor = 1
		}

		continue_if_invalid = yes
		completion_reward = {
			122 = {
				add_extra_state_shared_building_slots = 3
				add_building_construction = {
					type = dockyard
					level = 3
					instant_build = yes
				}

			}
			123 = {
				add_extra_state_shared_building_slots = 3
				add_building_construction = {
					type = dockyard
					level = 3
					instant_build = yes
				}
			}
			125 = {
				add_extra_state_shared_building_slots = 3
				add_building_construction = {
					type = dockyard
					level = 3
					instant_build = yes
				}
			}
		}
	}

	focus = {
		id = royal_ordinance_focus
		mutually_exclusive = { focus = royal_dockyard_focus }		
		available = {

		}
		prerequisite = { focus = uk_extra_tech_slot }
		icon = GFX_Royal_Artillery
		x = 1
		y = 2
		relative_position_id = uk_extra_tech_slot
		cost = 10
		ai_will_do = {
			factor = 1
		}

		continue_if_invalid = yes

		bypass = {
			custom_trigger_tooltip =  {
				tooltip = production_effort_tt
				NOT = {
					any_owned_state = {
						is_in_home_area = yes
						free_building_slots = {
							building = arms_factory
							size > 1
							include_locked = yes
						}
					}
				}
			}
		}
		complete_tooltip = {
			every_state = {
				limit = { has_state_flag = royal_ordinance_focus_2AF }
				add_extra_state_shared_building_slots = 2
				add_building_construction = {
					type = arms_factory
					level = 2
					instant_build = yes
				}
			}

		}
		completion_reward = {
			125 = {
				add_extra_state_shared_building_slots = 2
				add_building_construction = {
					type = arms_factory
					level = 2
					instant_build = yes
				}
				set_state_flag = royal_ordinance_focus_2AF
			}
			126 = {
				add_extra_state_shared_building_slots = 2
				add_building_construction = {
					type = arms_factory
					level = 2
					instant_build = yes
				}
				set_state_flag = royal_ordinance_focus_2AF
			}
			130 = {
				add_extra_state_shared_building_slots = 2
				add_building_construction = {
					type = arms_factory
					level = 2
					instant_build = yes
				}
				set_state_flag = royal_ordinance_focus_2AF
			}
		}
	}
	focus = {
		id = air_rearmament_focus
		prerequisite = { focus = general_rearmament_focus }
		icon = GFX_Royal_Air_Force
		x = -2
		y = 1
		relative_position_id = general_rearmament_focus
		cost = 5
		ai_will_do = {
			factor = 3
		}

		bypass = {
			custom_trigger_tooltip =  {
				tooltip = air_focus_bypass_tt
				NOT = {
					any_owned_state = {
						free_building_slots = {
							building = air_base
							size > 1
						}
					}
				}
			}
		}

		complete_tooltip = {
			add_tech_bonus = {
				name = air_rearmament_doctrine
				bonus = 1.00
				uses = 3
				category = air_doctrine
			}
			every_state = {
				limit = { has_state_flag = air_rearmament_focus_2AirBase }
				add_building_construction = {
					type = air_base
					level = 2
					instant_build = yes
				}
			}
		}

		completion_reward = {
			add_tech_bonus = {
				name = air_rearmament_doctrine
				bonus = 1.00
				uses = 3
				category = air_doctrine
			}
			add_tech_bonus = {
				name = air_rearmament_cas
				bonus = 1.0
				category = cas_bomber
			}
			air_experience = 25
			random_owned_controlled_state = {
				limit = {
					free_building_slots = {
						building = air_base
						size > 1
					}
					OR = {
						region = 1
						region = 2
					}
				}
				add_building_construction = {
					type = air_base
					level = 2
					instant_build = yes
				}
				set_state_flag = air_rearmament_focus_2AirBase
			}
			random_owned_controlled_state = {
				limit = {
					free_building_slots = {
						building = air_base
						size > 1
					}
					OR = {
						region = 1
						region = 2
					}
				}
				add_building_construction = {
					type = air_base
					level = 2
					instant_build = yes
				}
				set_state_flag = air_rearmament_focus_2AirBase
			}
			random_owned_controlled_state = {
				limit = {
					free_building_slots = {
						building = air_base
						size > 1
					}
					OR = {
						region = 1
						region = 2
						region = 3
					}
				}
				add_building_construction = {
					type = air_base
					level = 2
					instant_build = yes
				}
				set_state_flag = air_rearmament_focus_2AirBase
			}
			random_owned_controlled_state = {
				limit = {
					free_building_slots = {
						building = air_base
						size > 1
					}
					OR = {
						region = 1
						region = 2
						region = 3
					}
				}
				add_building_construction = {
					type = air_base
					level = 2
					instant_build = yes
				}
				set_state_flag = air_rearmament_focus_2AirBase
			}
			random_owned_controlled_state = {
				limit = {
					free_building_slots = {
						building = air_base
						size > 1
					}
					OR = {
						region = 1
						region = 2
						region = 3
					}
				}
				add_building_construction = {
					type = air_base
					level = 2
					instant_build = yes
				}
				set_state_flag = air_rearmament_focus_2AirBase
			}

			if = {
				limit = {
					NOT = {
						any_owned_state = {
							free_building_slots = {
								building = air_base
								size > 1
							}
							OR = {
								region = 1
								region = 2
								region = 3
							}
						}
					}
				}
				random_owned_controlled_state = {
					limit = {
						free_building_slots = {
							building = air_base
							size > 1
						}
					}
					add_building_construction = {
						type = air_base
						level = 2
						instant_build = yes
					}
					set_state_flag = air_rearmament_focus_2AirBase
				}
				random_owned_controlled_state = {
					limit = {
						free_building_slots = {
							building = air_base
							size > 1
						}
					}
					add_building_construction = {
						type = air_base
						level = 2
						instant_build = yes
					}
					set_state_flag = air_rearmament_focus_2AirBase
				}
				random_owned_controlled_state = {
					limit = {
						free_building_slots = {
							building = air_base
							size > 1
						}
					}
					add_building_construction = {
						type = air_base
						level = 2
						instant_build = yes
					}
					set_state_flag = air_rearmament_focus_2AirBase
				}
				random_owned_controlled_state = {
					limit = {
						free_building_slots = {
							building = air_base
							size > 1
						}
					}
					add_building_construction = {
						type = air_base
						level = 2
						instant_build = yes
					}
					set_state_flag = air_rearmament_focus_2AirBase
				}
			}
		}
	}

	focus = {
		id = ENG_chiefs_of_staff_committee
		prerequisite = { focus = air_rearmament_focus }
		prerequisite = { focus = ENG_secure_the_imperial_shipping_routes }
		available = {
			OR = {
				AND = {
					448 = { is_controlled_by_allied_country = yes }
					450 = { is_controlled_by_allied_country = yes }
					451 = { is_controlled_by_allied_country = yes }	
				}
				date > 1943.1.1
			}
		}

		continue_if_invalid = yes

		icon = GFX_focus_eng_chiefs_of_staff_committee
		x = 2
		y = 1
		relative_position_id = air_rearmament_focus
		cost = 5
		ai_will_do = {
			factor = 1
		}
		completion_reward = {
			every_country = { limit = { is_in_faction_with = ENG } add_ideas = ENG_chiefs_of_staff_committee_idea }		
		}
	}

	focus = {
		id = fighter_command_focus
		prerequisite = { focus = air_rearmament_focus }
		available = {
			OR = {
				date > 1938.4.1
				GER = { has_completed_focus = GER_anschluss }
			}
		}
		icon = GFX_ENG_fighter
		x = -1
		y = 2
		relative_position_id = air_rearmament_focus
		cost = 10
		ai_will_do = {
			factor = 3
		}

		available_if_capitulated = yes

		completion_reward = {
			air_experience = 25
			custom_effect_tooltip = GDU_supermarine_spitfire_tt
			hidden_effect = {
				set_technology = { fighter2 = 1 }
			}
		}
	}
	focus = {
		id = bomber_command_focus
		prerequisite = { focus = air_rearmament_focus }
		icon = GFX_Noras_Eng_Bomber_Command
		x = 0
		y = 1
		relative_position_id = air_rearmament_focus
		cost = 10
		ai_will_do = {
			factor = 1
		}

		available_if_capitulated = yes

		completion_reward = {
			air_experience = 25
			add_tech_bonus = {
				name = bomber_command_focus
				bonus = 1.0
				uses = 2
				category = cat_strategic_bomber
				category = tactical_bomber				
			}
			custom_effect_tooltip = available_political_advisor
			show_ideas_tooltip = arthur_harris
		}
	}
	focus = {
		id = coastal_command_focus
		prerequisite = { focus = air_rearmament_focus }
		icon = GFX_goal_generic_air_naval_bomber
		x = 1
		y = 2
		relative_position_id = air_rearmament_focus
		cost = 5
		ai_will_do = {
			factor = 1
		}

		available_if_capitulated = yes

		completion_reward = {
			air_experience = 75
			add_tech_bonus = {
				name = coastal_command_focus
				bonus = 1.0
				uses = 2
				category = naval_bomber
				category = naval_air
			}
			add_tech_bonus = {
				name = heavy_fighter_bonus
				bonus = 1.0
				uses = 1
				category = cat_heavy_fighter
			}			
		}
	}

	focus = {
		id = uk_jet_focus
		prerequisite = { focus = fighter_command_focus }
		prerequisite = { focus = coastal_command_focus }
		prerequisite = { focus = bomber_command_focus }

		icon = GFX_ENG_jet_aircraft
		x = -1
		y = 4
		relative_position_id = air_rearmament_focus
		cost = 10
		ai_will_do = {
			factor = 1
		}

		available_if_capitulated = yes

		completion_reward = {
			add_tech_bonus = {
				name = uk_jet_focus
				bonus = 1.0
				uses = 4
				category = jet_technology
			}
		}
	}
	
	focus = {
		id = ENG_me262
		icon = GFX_goal_ger_me262
		prerequisite = { focus = fighter_command_focus }
		prerequisite = { focus = coastal_command_focus }
		prerequisite = { focus = bomber_command_focus }
		relative_position_id = air_rearmament_focus
		x = 1
		y = 4
		cost = 10
		ai_will_do = {
			factor = 1
		}
        available = {
			date > 1942.10.1
			GER = { has_tech = jet_fighter1 }
		}

		available_if_capitulated = yes

		completion_reward = {
			set_technology = { jet_engines = 1 }
			add_tech_bonus = {
				name = fighter3_bonus
				bonus = 0.5
				uses = 1
				technology = fighter3
			}			
			add_tech_bonus = {
				name = jet_fighter_bonus
				bonus = 2.5
				uses = 1
				technology = jet_fighter1
			}		
		}
	}	
	
	focus = {
		id = naval_rearmament_focus
		prerequisite = { focus = limited_rearmament_focus }
		icon = GFX_royal_navy
		x = 6
		y = 1
		relative_position_id = limited_rearmament_focus
		cost = 5
		ai_will_do = {
			factor = 1
		}

		available_if_capitulated = yes


		complete_tooltip = {
			every_state = {
				limit = { has_state_flag = ENG_naval_rearmament_focus_1dockyard }
				add_extra_state_shared_building_slots = 2
				add_building_construction = {
					type = dockyard
					level = 2
					instant_build = yes
				}
			}
		}

		completion_reward = {
			navy_experience = 50
			add_ideas = ENG_expand_the_repair_yards
			338 = {
				add_extra_state_shared_building_slots = 2
				add_building_construction = {
					type = dockyard
					level = 2
					instant_build = yes
				}
				set_state_flag = ENG_naval_rearmament_focus_1dockyard
			}
			132 = {
				add_extra_state_shared_building_slots = 2
				add_building_construction = {
					type = dockyard
					level = 2
					instant_build = yes
				}
				set_state_flag = ENG_naval_rearmament_focus_1dockyard
			}			
		}
	}

	focus = {
		id = ENG_secure_the_imperial_shipping_routes
		icon = GFX_ENG_navy
		x = 2
		y = 1
		offset = {
			x = -1
			y = 0
			trigger = {
				NOT = { has_dlc = "Man the Guns" }
			}
		}
		relative_position_id = general_rearmament_focus
		cost = 5
		ai_will_do = {
			factor = 1
		}

		available = {
				ENG = {
					has_completed_focus = naval_rearmament_focus
				}
			OR = {
				GER = {
					has_completed_focus = GER_naval_rearmament
				}
				GER = {
					has_completed_focus = GER_naval_rearmament_alt
				}				
				ENG = {
					has_completed_focus = general_rearmament_focus
				}
				GER = {
					num_of_naval_factories > 19
				}
			}

		}

		available_if_capitulated = no

		completion_reward = {
			add_ideas = ENG_the_sun_never_sets_idea
			add_tech_bonus = {
				name = ENG_secure_the_imperial_shipping_routes
				bonus = 1.5
				uses = 2
				category = cl_tech
			}
			130 = {
				add_extra_state_shared_building_slots = 2
				add_building_construction = {
					type = dockyard
					level = 2
					instant_build = yes
				}
			}
			120 = {
				add_extra_state_shared_building_slots = 2
				add_building_construction = {
					type = dockyard
					level = 2
					instant_build = yes
				}
			}
		}
	}

	focus = {
		id = ENG_anti_non_contact_committee
		prerequisite = { focus = ENG_secure_the_imperial_shipping_routes }
		icon = GFX_goal_generic_occupy_states_coastal
		x = 0
		y = 1
		relative_position_id = ENG_secure_the_imperial_shipping_routes
		cost = 5
		ai_will_do = {
			factor = 1
		}

		allow_branch = {
			has_dlc = "Man the Guns"
		}

		available_if_capitulated = yes

		completion_reward = {
			add_ideas = british_convoy_discount
		}
	}

	focus = {
		id = uk_destroyer_focus
		prerequisite = { focus = ENG_secure_the_imperial_shipping_routes }
		icon = GFX_focus_generic_destroyer
		x = -1
		y = 2
		relative_position_id = ENG_secure_the_imperial_shipping_routes
		cost = 5
		ai_will_do = {
			factor = 1
		}

		available_if_capitulated = yes

		completion_reward = {
			add_tech_bonus = {
				name = dd_bonus
				bonus = 1.5
				uses = 2
				category = dd_tech
			}
		}
	}

	focus = {
		id = ENG_a_s_warfare
		prerequisite = { focus = uk_destroyer_focus }
		icon = GFX_goal_generic_navy_anti_submarine
		x = 0
		y = 2
		relative_position_id = uk_destroyer_focus
		cost = 5
		ai_will_do = {
			factor = 1
		}

		available_if_capitulated = yes

		allow_branch = {
			has_dlc = "Man the Guns"
		}

		completion_reward = {
			add_tech_bonus = {
				name = ENG_asw_warfare
				bonus = 1.5
				ahead_reduction = 2
				uses = 2
				category = asw_tech
			}
			add_tech_bonus = {
				name = ENG_asw_warfare
				bonus = 1.5
				uses = 2
				category = asw_tech
			}			
		}
	}

	focus = {
		id = uk_convoy_focus
		prerequisite = { focus = uk_destroyer_focus }
		icon = GFX_goal_generic_navy_cruiser
		x = -1
		y = 1
		relative_position_id = uk_destroyer_focus
		cost = 5
		ai_will_do = {
			factor = 1
		}

		available_if_capitulated = yes

		completion_reward = {
			add_tech_bonus = {
				name = ENG_anti_submarine_training_school
				bonus = 1.0
				uses = 2
				category = convoy_defense_tree
			}
			add_ideas = ENG_anti_submarine_training_school
		}
	}

	focus = {
		id = uk_waves_focus
		prerequisite = { focus = ENG_secure_the_imperial_shipping_routes }
		icon = GFX_goal_britannia
		x = 1
		y = 2
		relative_position_id = ENG_secure_the_imperial_shipping_routes
		cost = 5
		ai_will_do = {
			factor = 1
		}

		available_if_capitulated = yes

		completion_reward = {
	
			129 = {
				add_extra_state_shared_building_slots = 2
				add_building_construction = {
					type = dockyard
					level = 2
					instant_build = yes
				}
			}
			add_tech_bonus = {
				name = uk_waves_focus
				bonus = 1.0
				uses = 3
				category = naval_doctrine
			}

		}
	}
	focus = {
		id = uk_carrier_focus
		prerequisite = { focus = uk_waves_focus }
		icon = GFX_goal_generic_navy_carrier
		x = -1
		y = 1
		relative_position_id = uk_waves_focus
		cost = 5
		ai_will_do = {
			factor = 0.25
		}

		available_if_capitulated = yes

		completion_reward = {
			navy_experience = 25
			add_tech_bonus = {
				name = uk_carrier_focus
				bonus = 1.5
				uses = 2
				category = cv_tech
			}

		}
	}
	focus = {
		id = uk_battleship_focus
		prerequisite = { focus = uk_waves_focus }
		icon = GFX_ENG_battleship
		x = 1
		y = 1
		relative_position_id = uk_waves_focus
		cost = 5
		ai_will_do = {
			factor = 1
		}

		available_if_capitulated = yes

		completion_reward = {
			navy_experience = 25
			add_tech_bonus = {
				name = uk_battleship_focus
				bonus = 1.5
				uses = 2
				category = bb_tech
			}
		}
	}
	focus = {
		id = uk_amphibious_focus
		prerequisite = { focus = ENG_secure_the_imperial_shipping_routes }
		icon = GFX_ENG_marines
		x = 3
		y = 1
		relative_position_id = ENG_secure_the_imperial_shipping_routes
		cost = 10
		ai_will_do = {
			factor = 1
		}

		available_if_capitulated = yes

		completion_reward = {
			add_tech_bonus = {
				name = uk_amphibious_focus
				bonus = 1.0
				uses = 1
				category = marine_tech
			}
			add_tech_bonus = {
				name = uk_amphibious_focus
				bonus = 1.0
				uses = 2
				category = tp_tech
			}
		}
	}

	focus = {
		id = mulberry_harbours_focus
		prerequisite = { focus = uk_amphibious_focus }

		available = {
			date > 1943.6.1
		}
		icon = GFX_goal_generic_build_navy
		x = 0
		y = 5
		relative_position_id = uk_amphibious_focus

		cost = 10
		ai_will_do = {
			factor = 1
		}
		completion_reward = {
			add_ideas = mulberry_harbours_idea
			USA = { add_ideas = mulberry_harbours_idea }
			CAN = { add_ideas = mulberry_harbours_idea }
			SAF = { add_ideas = mulberry_harbours_idea }
			AST = { add_ideas = mulberry_harbours_idea }
			NZL = { add_ideas = mulberry_harbours_idea }
			RAJ = { add_ideas = mulberry_harbours_idea }
			FRF = { add_ideas = mulberry_harbours_idea }
		}
	}

	#focus = {
	#	id = uk_embargo_focus
	#	available = { threat > 0.1 }
	#	icon = GFX_goal_support_democracy
	#	x = 12
	#	y = 0
	#	cost = 10
	#	ai_will_do = {
	#		factor = 1
	#	}
	#	completion_reward = {
	#		every_other_country = {
	#			limit = { NOT = { has_government = democratic } }
	#			add_opinion_modifier = { target = ENG modifier = minor_sanctions }
	#			add_opinion_modifier = { target = ENG modifier = minor_sanctions_relations }
	#		}
	#	}
	#}

	### EMPIRE ###

	focus = {
		id = air_defense_focus
		prerequisite = { focus = shadow_scheme_focus }
		available = {
			if = {
				limit = {
					has_dlc = "Man the Guns"
				}
				OR = {
					threat > 0.05
					has_war = yes
					NOT = { has_government = democratic }
				}
			}
			if = {
				limit = {
					NOT = { has_dlc = "Man the Guns" }
				}
				OR = {
					threat > 0.05
					has_war = yes
					NOT = { has_government = democratic }
				}
			}
		}

		continue_if_invalid = yes
		available_if_capitulated = yes

		icon = GFX_goal_generic_construct_military
		x = -2
		y = 1
		relative_position_id = shadow_scheme_focus
		cost = 5
		ai_will_do = {
			factor = 1
		}

		bypass = {
			custom_trigger_tooltip =  {
				tooltip = air_defense_focus_bypass_tt
				NOT = {
					any_owned_state = {
						free_building_slots = {
							building = anti_air_building
							size > 0
						}
					}
				}
			}
		}

		complete_tooltip = {
			air_experience = 25
			if = {
				limit = { has_country_flag = air_defense_focus_built_max }
				custom_effect_tooltip = air_defense_focus_tt
			}
			if = {
				limit = { NOT = { has_country_flag = air_defense_focus_built_max } }
				every_state = {
					limit = { has_state_flag = ENG_air_defense_focus_built_2 }
					add_building_construction = {
						type = anti_air_building
						level = 2
						instant_build = yes
					}
				}
			}
		}

		completion_reward = {
			add_tech_bonus = {
				name = ENG_AA
				uses = 1
				bonus = 1.0
				technology = antiair2
				technology = antiair3				
			}
			air_experience = 25
			if = {
				limit = {
					NOT = {
						OR = {
							123 = {
								free_building_slots = {
									building = anti_air_building
									size > 1
								}
							}
							125 = {
								free_building_slots = {
									building = anti_air_building
									size > 1
								}
							}
							127 = {
								free_building_slots = {
									building = anti_air_building
									size > 1
								}
							}
						}
					}
					NOT = {
						any_owned_state = {
							free_building_slots = {
								building = anti_air_building
								size > 1
							}
							OR = {
								region = 1
								region = 2
								region = 3
							}
						}
					}
				}
				random_owned_controlled_state = {
					limit = {
						free_building_slots = {
							building = anti_air_building
							size > 1
						}
					}
					add_building_construction = {
						type = anti_air_building
						level = 2
						instant_build = yes
					}
					set_state_flag = ENG_air_defense_focus_built_2
				}
				random_owned_controlled_state = {
					limit = {
						free_building_slots = {
							building = anti_air_building
							size > 1
						}
					}
					add_building_construction = {
						type = anti_air_building
						level = 2
						instant_build = yes
					}
					set_state_flag = ENG_air_defense_focus_built_2
				}
			}
			if = {
				limit = {
					NOT = {
						OR = {
							123 = {
								free_building_slots = {
									building = anti_air_building
									size > 1
								}
							}
							125 = {
								free_building_slots = {
									building = anti_air_building
									size > 1
								}
							}
							127 = {
								free_building_slots = {
									building = anti_air_building
									size > 1
								}
							}
						}
					}
				}
				random_owned_controlled_state = {
					limit = {
						free_building_slots = {
							building = anti_air_building
							size > 1
						}
						OR = {
							region = 1
							region = 2
							region = 3
						}
					}
					add_building_construction = {
						type = anti_air_building
						level = 2
						instant_build = yes
					}
					set_state_flag = ENG_air_defense_focus_built_2
				}
				random_owned_controlled_state = {
					limit = {
						free_building_slots = {
							building = anti_air_building
							size > 1
						}
						OR = {
							region = 1
							region = 2
							region = 3
						}
					}
					add_building_construction = {
						type = anti_air_building
						level = 2
						instant_build = yes
					}
					set_state_flag = ENG_air_defense_focus_built_2
				}
				random_owned_controlled_state = {
					limit = {
						free_building_slots = {
							building = anti_air_building
							size > 1
						}
						OR = {
							region = 1
							region = 2
							region = 3
						}
					}
					add_building_construction = {
						type = anti_air_building
						level = 2
						instant_build = yes
					}
					set_state_flag = ENG_air_defense_focus_built_2
				}
			}
			if = {
				limit = {
					OR = {
						123 = {
							free_building_slots = {
								building = anti_air_building
								size > 1
							}
						}
						125 = {
							free_building_slots = {
								building = anti_air_building
								size > 1
							}
						}
						127 = {
							free_building_slots = {
								building = anti_air_building
								size > 1
							}
						}
					}
				}
				custom_effect_tooltip = air_defense_focus_tt
				hidden_effect = {
					123 = {
						add_building_construction = {
							type = anti_air_building
							level = 5
							instant_build = yes
						}
					}
					125 = {
						add_building_construction = {
							type = anti_air_building
							level = 5
							instant_build = yes
						}
					}
					127 = {
						add_building_construction = {
							type = anti_air_building
							level = 5
							instant_build = yes
						}
					}
					set_country_flag = air_defense_focus_built_max
				}
			}
		}
	}

	focus = {
		id = radar_focus
		prerequisite = { focus = air_defense_focus }
		icon = GFX_goal_generic_radar
		x = 0
		y = 1
		relative_position_id = air_defense_focus
		cost = 10
		ai_will_do = {
			factor = 1
		}

		available_if_capitulated = yes

		completion_reward = {
			air_experience = 25
			add_tech_bonus = {
				name = radar_focus
				bonus = 2.0
				uses = 5
				category = radar_tech
			}
			135 = {	
				add_building_construction = {
					type = radar_station
					level = 1
				}
			}
			338 = {	
				add_building_construction = {
					type = radar_station
					level = 1
				}
			}
			128 = {
				add_building_construction = {
					type = radar_station
					level = 1
				}
			}
			129 = {
				add_building_construction = {
					type = radar_station
					level = 1
				}
			}			
		}
	}

	focus = {
		id = uk_service_focus
		prerequisite = { focus = uk_empire_focus }
		available = {

		}
		icon = GFX_goal_generic_position_armies
		x = 7
		y = 1
		offset = {
			x = 2
			y = 0
			trigger = {
				NOT = { has_dlc = "Man the Guns" }
			}
		}
		relative_position_id = uk_empire_focus
		cost = 5

		available_if_capitulated = yes

		completion_reward = {
			unlock_decision_tooltip = GDU_eng_countenance		
			army_experience = 50
			navy_experience = 25
			air_experience = 25
			add_ideas = ENG_service_overseas_idea
		}
	}
	
	focus = {
		id = uk_protect_suez
		prerequisite = { focus = uk_empire_focus }
		icon = GFX_british_fortifications
		x = 5
		y = 2
		relative_position_id = uk_empire_focus
		cost = 5
		completion_reward = {
			if = {
				limit = {
					has_idea = ENG_fortify_the_empire_1
				}
				swap_ideas = {
					remove_idea = ENG_fortify_the_empire_1
					add_idea = ENG_fortify_the_empire_2
				}
			}
			if = {
				limit = {
					NOT = { has_idea = ENG_fortify_the_empire_1 }
					NOT = { has_idea = ENG_fortify_the_empire_2 }
				}
				add_ideas = ENG_fortify_the_empire_1
			}
			447 = {
				add_building_construction = {
					type = coastal_bunker
					level = 3
					province = 4076
					instant_build = yes
				}
				add_building_construction = {
					type = bunker
					level = 2
					province = 4076
					instant_build = yes
				}
				add_building_construction = {
					type = naval_base
					level = 6
					province = 4076
					instant_build = yes
				}
				add_building_construction = {
					type = air_base
					level = 2
					instant_build = yes
				}
			}
			446 = {
				if = {
					limit = {
						OR = {
							is_controlled_by = ROOT
						}
					}
					add_building_construction = {
						type = air_base
						level = 2
						instant_build = yes
					}
				add_building_construction = {
					type = bunker
					level = 7
					province = 5448
					instant_build = yes
				}					
				}
			}		
			447 = {
					add_building_construction = {
						type = infrastructure
						level = 1
						instant_build = yes
					}			
				add_building_construction = {
					type = coastal_bunker
					level = 2
					province = 4076
					instant_build = yes
				}
				add_building_construction = {
					type = bunker
					level = 3
					province = 4076
					instant_build = yes
				}
				add_building_construction = {
					type = bunker
					level = 7
					province = 1071
					instant_build = yes
				}
				add_building_construction = {
					type = anti_air_building
					level = 2
					instant_build = yes
				}
				add_building_construction = {
					type = bunker
					level = 2
					province = 7091
					instant_build = yes
				}
				add_building_construction = {
					type = bunker
					level = 2
					province = 5491
					instant_build = yes
				}
				add_building_construction = {
					type = coastal_bunker
					level = 5
					province = 1071
					instant_build = yes
				}
				add_building_construction = {
					type = coastal_bunker
					level = 5
					province = 4145
					instant_build = yes
				}
				add_building_construction = {
					type = coastal_bunker
					level = 5
					province = 7091
					instant_build = yes
				}					
			}
			446 = {
					add_building_construction = {
						type = infrastructure
						level = 1
						instant_build = yes
					}
				add_building_construction = {
					type = air_base
					level = 2
					instant_build = yes
				}
				add_building_construction = {
					type = bunker
					level = 2
					province = 7011
					instant_build = yes
				}
				add_building_construction = {
					type = bunker
					level = 2
					province = 2549
					instant_build = yes
				}
				add_building_construction = {
					type = bunker
					level = 2
					province = 4143
					instant_build = yes
				}
				add_building_construction = {
					type = bunker
					level = 2
					province = 7188
					instant_build = yes
				}				
			}
			453 = {
					add_building_construction = {
						type = infrastructure
						level = 4
						instant_build = yes
					}						
			}			
		}
	}
	focus = {
		id = uk_rock_focus
		prerequisite = { focus = uk_protect_suez }
		available = {
			118 = { is_owned_and_controlled_by = ENG }
		}
		icon = GFX_british_fortifications
		x = -1
		y = 1
		relative_position_id = uk_protect_suez
		cost = 5
		completion_reward = {
			118 = {
				add_building_construction = {
					type = bunker
					level = 4
					province = 601
					instant_build = yes
				}
				add_building_construction = {
					type = coastal_bunker
					level = 4
					province = 4135
					instant_build = yes
				}
				add_building_construction = {
					type = coastal_bunker
					level = 4
					province = 600
					instant_build = yes
				}
				add_building_construction = {
					type = air_base
					level = 3
					instant_build = yes
				}
				add_building_construction = {
					type = anti_air_building
					level = 5
					instant_build = yes
				}
			}
		}
	}

	focus = {
		id = uk_take_back_rock_focus
		
		available = {
			ITA = {
                has_idea = GDU_triumph_masra_matruh  
			}
        452 = { is_controlled_by = ENG }


		}
		icon = GFX_british_fortifications
		x = -1
		y = 3
		relative_position_id = uk_protect_suez
		cost = 5
		completion_reward = {
			
				GER = { remove_ideas = GDU_triumph_masra_matruh  }
				ITA = { remove_ideas = GDU_triumph_masra_matruh }
				HUN = { remove_ideas = GDU_triumph_masra_matruh }
				ROM = { remove_ideas = GDU_triumph_masra_matruh }
				BUL = { remove_ideas = GDU_triumph_masra_matruh }
				SPR = { remove_ideas = GDU_triumph_masra_matruh }
	}
}
	focus = {
		id = ENG_reconsolidate_egypt
		icon = GFX_ENG_egypt
		text = ENG_reconsolidate_egypt
		prerequisite = { focus = uk_protect_suez }
		x = 0
		y = 2
		cost = 5		
		relative_position_id = uk_protect_suez
		ai_will_do = {
			factor = 1
		}
		cancel_if_invalid = no
		available = {
			ITA = { has_completed_focus = ITA_consolidate_egypt }
			ENG = {
				controls_state = 446
				controls_state = 447
				controls_state = 453
				controls_state = 454
				controls_state = 455				
				controls_state = 452
				controls_state = 456				
				controls_state = 457				
				
			}
		}

		available_if_capitulated = yes

		completion_reward = {
				ITA = { remove_ideas = general_staff_ITA }
				GER = { remove_ideas = GDU_triumph_egypt }
				ITA = { remove_ideas = GDU_triumph_egypt }
				HUN = { remove_ideas = GDU_triumph_egypt }
				ROM = { remove_ideas = GDU_triumph_egypt }
				BUL = { remove_ideas = GDU_triumph_egypt }
				SPR = { remove_ideas = GDU_triumph_egypt }
				GER = { remove_ideas = GDU_triumph_egypt2 }
				ITA = { remove_ideas = GDU_triumph_egypt2 }
				HUN = { remove_ideas = GDU_triumph_egypt2 }
				ROM = { remove_ideas = GDU_triumph_egypt2 }
				BUL = { remove_ideas = GDU_triumph_egypt2 }
				SPR = { remove_ideas = GDU_triumph_egypt2 }					
		}
	}

	focus = {
		id = ENG_fortify_yemen
		prerequisite = { focus = uk_protect_suez }
		icon = GFX_british_fortifications
		x = 2
		y = 2
		relative_position_id = uk_protect_suez
		cost = 3
		completion_reward = {
			293 = {
				add_building_construction = {
					type = bunker
					level = 5
					province = 1920
					instant_build = yes
				}
				add_building_construction = {
					type = coastal_bunker
					level = 5
					province = 4489
					instant_build = yes
				}
				add_building_construction = {
					type = coastal_bunker
					level = 5
					province = 4655
					instant_build = yes
				}
				add_building_construction = {
					type = air_base
					level = 3
					instant_build = yes
				}
				add_building_construction = {
					type = anti_air_building
					level = 3
					instant_build = yes
				}
			}

			659 = {
				add_building_construction = {
					type = bunker
					level = 5
					province = 5074
					instant_build = yes
				}
				add_building_construction = {
					type = air_base
					level = 3
					instant_build = yes
				}
				add_building_construction = {
					type = anti_air_building
					level = 3
					instant_build = yes
				}
			}

		}
	}

	focus = {
		id = uk_malta_focus
		prerequisite = { focus = uk_protect_suez }
		available = {
			116 = { is_owned_and_controlled_by = ENG }
		}
		icon = GFX_british_fortifications
		x = 1
		y = 1
		relative_position_id = uk_protect_suez
		cost = 3

		available_if_capitulated = yes

		completion_reward = {
			116 = {
				add_extra_state_shared_building_slots = 1
				add_building_construction = {
					type = coastal_bunker
					level = 4
					province = 2550
					instant_build = yes
				}
				add_building_construction = {
					type = air_base
					level = 2
					instant_build = yes
				}
				add_building_construction = {
					type = anti_air_building
					level = 4
					instant_build = yes
				}
			}
		}
	}

	### DECOLONIZATION ###

	### END OF DECOLONIZATION ###


	focus = {
		id = uk_colonial_focus
		prerequisite = { focus = uk_empire_focus }
		icon = GFX_focus_research2
		x = 0
		y = 2
		relative_position_id = uk_empire_focus
		cost = 10

		available_if_capitulated = yes

		completion_reward = {
			add_ideas = { ENG_colonial_elite }
			add_timed_idea = { idea = ENG_steady_as_she_goes_idea days = 365 }			
		}
	}

	focus = {
		id = uk_asia_focus
		prerequisite = { focus = uk_empire_focus }

		available = {

		}

		icon = GFX_goal_generic_construct_civilian
		x = 9
		y = 2
		relative_position_id = uk_empire_focus
		cost = 5

		available_if_capitulated = yes


		completion_reward = {
			if = {
				limit = {
					has_idea = ENG_fortify_the_empire_1
				}
				swap_ideas = {
					remove_idea = ENG_fortify_the_empire_1
					add_idea = ENG_fortify_the_empire_2
				}
			}
			if = {
				limit = {
					NOT = { has_idea = ENG_fortify_the_empire_1 }
					NOT = { has_idea = ENG_fortify_the_empire_2 }
				}
				add_ideas = ENG_fortify_the_empire_1
			}
			124 = {
					add_building_construction = {
						type = naval_base
						level = 8
						province = 1349
						instant_build = yes
					}

			}
			681 = {
					add_building_construction = {
						type = naval_base
						level = 6
						province = 1948
						instant_build = yes
					}

			}
			284 = {
					add_building_construction = {
						type = naval_base
						level = 5
						province = 4543
						instant_build = yes
					}

			}			
			277 = {
            add_building_construction = {
            type = naval_base
            level = 6
            province = 2177
            instant_build = yes
            }
			}
			468 = {
					add_building_construction = {
						type = naval_base
						level = 8
						province = 2435
						instant_build = yes
					}

			}
		}
	}

	focus = {
		id = ENG_synthetic_rubber
		icon = GFX_focus_generic_rubber
		prerequisite = { focus = uk_extra_tech_slot }
		x = 2
		y = 1
		relative_position_id = uk_extra_tech_slot
		cost = 10
		ai_will_do = {
			factor = 4
		}

		available = {
			has_war_with = JAP
		}

		completion_reward = {
			#modify_building_resources = {
        	#   building = synthetic_refinery
        	#   resource = oil
        	#   amount = -2
        	#}
			swap_ideas = {
				remove_idea = GDU_refinery_prebuild_disincentive
				add_idea = ENG_synthetic_rubber
			}
			add_tech_bonus = {
				name = eng_rubber
				bonus = 1
				uses = 1
				technology = rubber_processing
				technology = improved_rubber_processing
				technology = advanced_rubber_processing
				technology = modern_rubber_processing
			}
		}
	}

	focus = {
		id = uk_commonwealth_focus
		prerequisite = { focus = uk_colonial_focus }
		available = {
			OR = {
				CAN = { is_in_faction_with = ENG }
				SAF = { is_in_faction_with = ENG }
				RAJ = { is_in_faction_with = ENG }
				AST = { is_in_faction_with = ENG }
				NZL = { is_in_faction_with = ENG }
			}
		}
		icon = GFX_focus_chi_british_cooperation
		x = 0
		y = 1
		relative_position_id = uk_colonial_focus
		cost = 10

		available_if_capitulated = yes

		completion_reward = {
			add_political_power = 60
			CAN = {
				if = {
					limit = {
						is_subject_of = ENG
					}
					add_stability = 0.05
					add_war_support = 0.05
					add_opinion_modifier = { target = ENG modifier = ENG_guiding_the_colonies }
					add_ideas = ENG_guided_by_britain_1
					hidden_effect = { country_event = { id =  mtg_britain.17 hours = 6 } }
				}
			}
			SAF = {
				if = {
					limit = {
						is_subject_of = ENG
					}
					add_stability = 0.05
					add_war_support = 0.05
					add_opinion_modifier = { target = ENG modifier = ENG_guiding_the_colonies }
					add_ideas = ENG_guided_by_britain_1
					hidden_effect = { country_event = { id =  mtg_britain.17 hours = 6 } }
				}
			}
			AST = {
				if = {
					limit = {
						is_subject_of = ENG
					}
					add_stability = 0.05
					add_war_support = 0.05
					add_opinion_modifier = { target = ENG modifier = ENG_guiding_the_colonies }
					add_ideas = ENG_guided_by_britain_1
					hidden_effect = { country_event = { id =  mtg_britain.17 hours = 6 } }
				}
			}
			NZL = {
				if = {
					limit = {
						is_subject_of = ENG
					}
					add_stability = 0.05
					add_war_support = 0.05
					add_opinion_modifier = { target = ENG modifier = ENG_guiding_the_colonies }
					add_ideas = ENG_guided_by_britain_1
					hidden_effect = { country_event = { id =  mtg_britain.17 hours = 6 } }
				}
			}
			RAJ = {
				if = {
					limit = {
						is_subject_of = ENG
					}
					add_stability = 0.05
					add_war_support = 0.05
					add_opinion_modifier = { target = ENG modifier = ENG_guiding_the_colonies }
					add_ideas = ENG_guided_by_britain_2
					hidden_effect = { country_event = { id =  mtg_britain.17 hours = 6 } }
				}
			}
		}

	}

	focus = {
		id = ENG_british_commonwealth_air_training_plan
		prerequisite = { focus = uk_commonwealth_focus }
		icon = GFX_goal_generic_air_fighter2
		x = 2
		y = 1
		relative_position_id = uk_commonwealth_focus
		cost = 5
		ai_will_do = {
			factor = 3
		}

		available = {
			OR = {
				CAN = { is_in_faction_with = ENG }
				SAF = { is_in_faction_with = ENG }
				RAJ = { is_in_faction_with = ENG }
				AST = { is_in_faction_with = ENG }
				NZL = { is_in_faction_with = ENG }
			}
		}

		bypass = {
		}

		completion_reward = {
			add_ideas = ENG_british_commonwealth_air_training_plan
			every_country = {
				limit = {
					is_subject_of = ROOT
					NOT = { original_tag = SAF }
				}
				add_ideas = ENG_british_commonwealth_air_training_plan
			}
			SAF = {
				if = {
					limit = {
						is_subject_of = ROOT
					}
					add_ideas = ENG_joint_air_training_scheme
				}
			}
		}
	}

	focus = {
		id = uk_india_focus
		prerequisite = { focus = uk_commonwealth_focus }
		available = {

		}
		icon = GFX_ENG_Reinforce_the_Commonwealth
		x = -2
		y = 1
		relative_position_id = uk_commonwealth_focus
		cost = 5

		available_if_capitulated = yes

		bypass = {

		}

		complete_tooltip = {
			RAJ = {
				add_opinion_modifier = { target = ENG modifier = aided_industry }
				126 = {
					add_extra_state_shared_building_slots = 1
					add_building_construction = {
						type = industrial_complex
						level = 1
						instant_build = yes
					}
				}
				439 = {
					add_extra_state_shared_building_slots = 1
					add_building_construction = {
						type = industrial_complex
						level = 1
						instant_build = yes
					}
				}
				440 = {
					add_extra_state_shared_building_slots = 1
					add_building_construction = {
						type = industrial_complex
						level = 1
						instant_build = yes
					}
				}
				426 = {
					add_extra_state_shared_building_slots = 1
					add_building_construction = {
						type = arms_factory
						level = 1
						instant_build = yes
					}
				}				
				428 = {
					add_extra_state_shared_building_slots = 1
					add_building_construction = {
						type = dockyard
						level = 1
						instant_build = yes
					}
				}
				add_autonomy_ratio = {
					value = -0.05
					localization = uk_india_focus
				}
			}
		}

		completion_reward = {
			RAJ = {
				add_opinion_modifier = { target = ENG modifier = aided_industry }
				126 = {
					add_extra_state_shared_building_slots = 1
					add_building_construction = {
						type = industrial_complex
						level = 1
						instant_build = yes
					}
				}
				439 = {
					add_extra_state_shared_building_slots = 1
					add_building_construction = {
						type = industrial_complex
						level = 1
						instant_build = yes
					}
					set_state_flag = ENG_uk_india_focus_2IC
				}
				440 = {
					add_extra_state_shared_building_slots = 1
					add_building_construction = {
						type = industrial_complex
						level = 1
						instant_build = yes
					}
					set_state_flag = ENG_uk_india_focus_2IC
				}
				428 = {
					add_extra_state_shared_building_slots = 1
					add_building_construction = {
						type = dockyard
						level = 1
						instant_build = yes
					}
					set_state_flag = ENG_uk_india_focus_2IC
				}
				add_autonomy_ratio = {
					value = -0.05
					localization = uk_india_focus
				}
			}
		}
	}


	focus = {
		id = uk_australia_focus
		prerequisite = { focus = uk_commonwealth_focus }
		available = {

		}

		bypass = {

		}
		icon = GFX_ENG_Reinforce_the_Commonwealth
		x = 0
		y = 1
		relative_position_id = uk_commonwealth_focus
		cost = 5

		available_if_capitulated = yes

		bypass = {
			AST = {
				custom_trigger_tooltip = {
					tooltip = construction_effort_tt
					all_owned_state = {
						free_building_slots = {
							building = industrial_complex
							size < 1
							include_locked = yes
						}
					}
				}
				custom_trigger_tooltip = {
					tooltip = naval_effort_tt
					all_owned_state = {
						free_building_slots = {
							building = dockyard
							size < 1
							include_locked = yes
						}
					}
				}
			}
		}

		complete_tooltip = {
			AST = {
				add_opinion_modifier = { target = ENG modifier = aided_industry }
				126 = {
					add_extra_state_shared_building_slots = 1
					add_building_construction = {
						type = industrial_complex
						level = 1
						instant_build = yes
					}
				}
				519 = {
					add_extra_state_shared_building_slots = 1
					add_building_construction = {
						type = industrial_complex
						level = 1
						instant_build = yes
					}
				}
				521 = {
					add_extra_state_shared_building_slots = 2
					add_building_construction = {
						type = dockyard
						level = 2
						instant_build = yes
					}
				}
				add_autonomy_ratio = {
					value = -0.05
					localization = uk_australia_focus
				}
			}
		}

		completion_reward = {
			AST = {
				add_opinion_modifier = { target = ENG modifier = aided_industry }
				126 = {
					add_extra_state_shared_building_slots = 1
					add_building_construction = {
						type = industrial_complex
						level = 1
						instant_build = yes
					}
				}
				519 = {
					add_extra_state_shared_building_slots = 1
					add_building_construction = {
						type = industrial_complex
						level = 1
						instant_build = yes
					}
					set_state_flag = ENG_uk_australia_focus_1IC
				}
				521 = {
					add_extra_state_shared_building_slots = 2
					add_building_construction = {
						type = dockyard
						level = 2
						instant_build = yes
					}
					set_state_flag = ENG_uk_australia_focus_1IC
				}
				add_autonomy_ratio = {
					value = -0.05
					localization = uk_australia_focus
				}
			}
		}
	}


	focus = {
		id = uk_new_zealand_focus
		prerequisite = { focus = uk_australia_focus }
		available = {
		}
		icon = GFX_ENG_Reinforce_the_Commonwealth
		x = 0
		y = 1
		relative_position_id = uk_australia_focus
		cost = 5

		available_if_capitulated = yes

		bypass = {

		}

		complete_tooltip = {
			NZL = {
				add_opinion_modifier = { target = ENG modifier = aided_industry }
				126 = {
					add_extra_state_shared_building_slots = 1
					add_building_construction = {
						type = industrial_complex
						level = 1
						instant_build = yes
					}
				}
				284 = {
					add_extra_state_shared_building_slots = 1
					add_building_construction = {
						type = industrial_complex
						level = 1
						instant_build = yes
					}
				}
				723 = {
					add_extra_state_shared_building_slots = 2
					add_building_construction = {
						type = dockyard
						level = 2
						instant_build = yes
					}
				}
				add_autonomy_ratio = {
					value = -0.05
					localization = uk_new_zealand_focus
				}
			}
		}

		completion_reward = {
			NZL = {
				add_opinion_modifier = { target = ENG modifier = aided_industry }
				126 = {
					add_extra_state_shared_building_slots = 1
					add_building_construction = {
						type = industrial_complex
						level = 1
						instant_build = yes
					}
				}
				284 = {
					add_extra_state_shared_building_slots = 1
					add_building_construction = {
						type = industrial_complex
						level = 1
						instant_build = yes
					}
					set_state_flag = ENG_uk_new_zealand_focus_1IC
				}
				723 = {
					add_extra_state_shared_building_slots = 2
					add_building_construction = {
						type = dockyard
						level = 2
						instant_build = yes
					}
					set_state_flag = ENG_uk_new_zealand_focus_1IC
				}
				add_autonomy_ratio = {
					value = -0.05
					localization = uk_new_zealand_focus
				}
			}
		}
	}


	focus = {
		id = uk_canada_focus
		prerequisite = { focus = uk_commonwealth_focus }
		available = {

		}
		icon = GFX_ENG_Reinforce_the_Commonwealth
		x = -1
		y = 3
		relative_position_id = uk_commonwealth_focus
		cost = 5

		available_if_capitulated = yes

		bypass = {

		}

		complete_tooltip = {
			CAN = {
				add_opinion_modifier = { target = ENG modifier = aided_industry }
				126 = {
					add_extra_state_shared_building_slots = 1
					add_building_construction = {
						type = industrial_complex
						level = 1
						instant_build = yes
					}
				}
				467 = {
					add_extra_state_shared_building_slots = 1
					add_building_construction = {
						type = industrial_complex
						level = 1
						instant_build = yes
					}
				}
				465 = {
					add_extra_state_shared_building_slots = 2
					add_building_construction = {
						type = dockyard
						level = 2
						instant_build = yes
					}
				}
				add_autonomy_ratio = {
					value = -0.05
					localization = uk_canada_focus
				}
			}
		}

		completion_reward = {
			CAN = {
				add_opinion_modifier = { target = ENG modifier = aided_industry }
				126 = {
					add_extra_state_shared_building_slots = 1
					add_building_construction = {
						type = industrial_complex
						level = 1
						instant_build = yes
					}
				}
				467 = {
					add_extra_state_shared_building_slots = 1
					add_building_construction = {
						type = industrial_complex
						level = 1
						instant_build = yes
					}
					set_state_flag = ENG_uk_canada_focus_2IC
				}
				465 = {
					add_extra_state_shared_building_slots = 2
					add_building_construction = {
						type = dockyard
						level = 2
						instant_build = yes
					}
					set_state_flag = ENG_uk_canada_focus_1IC
				}
				add_autonomy_ratio = {
					value = -0.05
					localization = uk_canada_focus
				}
			}
		}
	}

	focus = {
		id = uk_south_africa_focus
		prerequisite = { focus = uk_commonwealth_focus }
		available = {
		}
		icon = GFX_ENG_Reinforce_the_Commonwealth
		x = 1
		y = 3
		relative_position_id = uk_commonwealth_focus
		cost = 5

		available_if_capitulated = yes

		bypass = {

		}

		complete_tooltip = {
			SAF = {
				add_opinion_modifier = { target = ENG modifier = aided_industry }
				126 = {
					add_extra_state_shared_building_slots = 1
					add_building_construction = {
						type = industrial_complex
						level = 1
						instant_build = yes
					}
				}
				275 = {
					add_extra_state_shared_building_slots = 1
					add_building_construction = {
						type = industrial_complex
						level = 1
						instant_build = yes
					}
				}
				719 = {
					add_extra_state_shared_building_slots = 2
					add_building_construction = {
						type = dockyard
						level = 2
						instant_build = yes
					}
				}
				add_autonomy_ratio = {
					value = -0.05
					localization = uk_south_africa_focus
				}
			}
		}

		completion_reward = {
			SAF = {
				add_opinion_modifier = { target = ENG modifier = aided_industry }
				126 = {
					add_extra_state_shared_building_slots = 1
					add_building_construction = {
						type = industrial_complex
						level = 1
						instant_build = yes
					}
				}
				275 = {
					add_extra_state_shared_building_slots = 1
					add_building_construction = {
						type = industrial_complex
						level = 1
						instant_build = yes
					}
					set_state_flag = ENG_uk_south_africa_focus_2IC
				}
				719 = {
					add_extra_state_shared_building_slots = 2
					add_building_construction = {
						type = dockyard
						level = 2
						instant_build = yes
					}
					set_state_flag = ENG_uk_south_africa_focus_1IC
				}
				add_autonomy_ratio = {
					value = -0.05
					localization = uk_south_africa_focus
				}
			}
		}
	}

	focus = {
		id = ENG_imperial_conference
		prerequisite = { focus = uk_canada_focus }
		prerequisite = { focus = uk_new_zealand_focus }
		prerequisite = { focus = uk_south_africa_focus }
		prerequisite = { focus = uk_australia_focus }
		prerequisite = { focus = uk_india_focus }


		allow_branch = {
			has_dlc = "Man the Guns"
		}

		available = {
			OR = {
			CAN = {
				is_subject_of = ENG
				has_government = ROOT
			}
			AST = {
				is_subject_of = ENG
				has_government = ROOT
			}
			NZL = {
				is_subject_of = ENG
				has_government = ROOT
			}
			SAF = {
				is_subject_of = ENG
				has_government = ROOT
			}
			}
		}

		continue_if_invalid = yes

		icon = GFX_goal_generic_national_unity

		x = 0
		y = 2
		relative_position_id = uk_new_zealand_focus
		cost = 5
		ai_will_do = {
			factor = 1
			#modifier = {
			#	factor = 0
			#}
		}
		completion_reward = {
			every_country = {
				limit = {
					OR = {
						tag = ENG
						AND = {
							is_subject_of = ENG
							tag = CAN
						}
						AND = {
							is_subject_of = ENG
							tag = SAF
						}
						AND = {
							is_subject_of = ENG
							tag = RAJ
						}
						AND = {
							is_subject_of = ENG
							tag = AST
						}
						AND = {
							is_subject_of = ENG
							tag = NZL
						}
					}
				}
				country_event = { id = mtg_britain.88  days = 3 }
				add_timed_idea = { idea = GDU_ENG_imperial_conference days = 366 }
			}
		}
	}

	### DEMOCRATIC BRANCH - STEADY AS SHE GOES ###

	### GLOBAL DEFENSE BRANCH ###

	focus = {
		id = ENG_prepare_for_the_inevitable
		available = {

		}
		prerequisite = { focus = shadow_scheme_focus }

		icon = GFX_ENG_war_propaganda

		x = 0
		y = 1
		offset = {
			x = 1
			y = 0
			trigger = {
				NOT = { has_dlc = "Man the Guns" }
			}
		}
		relative_position_id = shadow_scheme_focus
		cost = 10
		ai_will_do = {
			factor = 1
		}
		completion_reward = {
			add_ideas = ENG_prepare_for_the_inevitable_idea
		}
	}

	focus = {
		id = ENG_blood_toil_tears
		prerequisite = { focus = ENG_prepare_for_the_inevitable }
		available = {
			OR = {
				date > 1940.1.1
				has_global_flag = fall_of_france
				has_global_flag = fall_of_greece				
				AND = {
					has_war_with = GER
					EFR = { exists = YES }				
				}
			}
		}

		continue_if_invalid = yes

		icon = GFX_focus_eng_motion_of_no_confidence
		x = 0
		y = 1
		relative_position_id = ENG_prepare_for_the_inevitable
		cost = 2
		ai_will_do = {
			factor = 1
		}
		completion_reward = {
			add_political_power = 200
			add_timed_idea = { idea = eng_blood_toil_tears_idea days = 400 }
			add_tech_bonus = {
				name = ENG_blood_toil_tears
				bonus = 1.0
				uses = 2
				category = land_doctrine
			}

		}
	}

	focus = {
		id = ENG_kickstart_the_war_industry
		prerequisite = { focus = ENG_blood_toil_tears }
		available = {

		}

		continue_if_invalid = yes

		icon = GFX_ENG_home_defense
		x = -1
		y = 1
		relative_position_id = ENG_blood_toil_tears
		cost = 10
		ai_will_do = {
			factor = 1
		}
		complete_tooltip = {
			every_state = {
				limit = { has_state_flag = kickstart_the_war_industry_2AF }
				add_extra_state_shared_building_slots = 2
				add_building_construction = {
					type = arms_factory
					level = 2
					instant_build = yes
				}
			}

		}
		completion_reward = {
			134 = {
				add_extra_state_shared_building_slots = 2
				add_building_construction = {
					type = arms_factory
					level = 2
					instant_build = yes
				}
				set_state_flag = kickstart_the_war_industry_2AF
			}
			128 = {
				add_extra_state_shared_building_slots = 2
				add_building_construction = {
					type = arms_factory
					level = 2
					instant_build = yes
				}
				set_state_flag = kickstart_the_war_industry_2AF
			}
		}
	}

	focus = {
		id = uk_extra_tech_slot_2
		icon = GFX_focus_research
		prerequisite = { focus = ENG_blood_toil_tears }
		x = 1
		y = 1
		relative_position_id = ENG_blood_toil_tears
		cost = 10

		available = {
			NOT = { has_global_flag = mini_GDU }
		}

		available_if_capitulated = yes

		completion_reward = {
			add_research_slot = 1
		}
	}

	focus = {
		id = ENG_maintaining_imperial_integrity
		prerequisite = { focus = uk_asia_focus }
		available = {
			is_subject = no
		}
		bypass = {
			NOT = {
				any_country = {
					is_subject_of = ENG
				}
			}
		}

		continue_if_invalid = yes

		icon = GFX_focus_chi_british_cooperation
		x = 0
		y = 1
		relative_position_id = uk_asia_focus
		cost = 5
		ai_will_do = {
			factor = 10
		}
		completion_reward = {
			add_tech_bonus = {
				name = naval_doc_bonus
				bonus = 1.0
				uses = 1
				category = naval_doctrine
			}




		}
	}



	### HOME DEFENCE BRANCH

	### GERMAN WAR ###

	# START IRAQ/IRAN/USSR INTERVENTION #



	# END IRAQ/IRAN/USSR INTERVENTION #

	focus = {
		id = ENG_issue_gasmasks
		available = {

		}

		available_if_capitulated = yes

		prerequisite = { focus = shadow_scheme_focus }
		icon = GFX_Generic_Chemical_Warfare
		x = 2
		y = 1
		offset = {
			x = 1
			y = 0
			trigger = {
				NOT = { has_dlc = "Man the Guns" }
			}
		}
		relative_position_id = shadow_scheme_focus
		cost = 5
		ai_will_do = {
			factor = 1
		}
		completion_reward = {
			add_war_support = 0.05
			add_stability = 0.1
			add_tech_bonus = {
				name = ENG_ART
				uses = 1
				bonus = 0.5			
				technology = artillery1
				technology = artillery2				
			}
			add_tech_bonus = {
				name = ENG_AT
				uses = 1
				bonus = 0.5
				technology = antitank2
				technology = antitank3			
			}					
		}
	}

	focus = {
		id = ENG_military_training_act
		available = {
			OR = {
				threat > 0.5
				has_war = yes
			}
		}

		available_if_capitulated = yes

		prerequisite = { focus = ENG_issue_gasmasks }
		icon = GFX_ENG_conscription
		x = 0
		y = 1
		relative_position_id = ENG_issue_gasmasks
		cost = 10
		ai_will_do = {
			factor = 1
		}
		completion_reward = {
			set_rule = { can_send_volunteers = yes }
			add_tech_bonus = {
				name = ENG_artillery
				uses = 1
				bonus = 1.0
				technology = artillery4
			}
		}
	}

	### END ROAD TO WAR WITH GERMANY ###

	### SCANDINAVIAN BRANCH ####

	focus = {
		id = ENG_norwegian_intervention
		available = {
			GER = { has_war_with = ENG }
			date > 1940.2.1
		}
		bypass = {
			NOR = { has_war_with = GER }
		}
		will_lead_to_war_with = NOR
		prerequisite = { focus = shadow_scheme_focus }
		icon = GFX_goal_generic_more_territorial_claims
		x = 4
		y = 1
		relative_position_id = shadow_scheme_focus
		cost = 0.2
		ai_will_do = {
			factor = 1
		}
		completion_reward = {
			create_wargoal = {
				type = puppet_wargoal_focus
				target = NOR
				expire = 0
			}
		}
	}

	### DDAY PREPARATIONS ###

	focus = {
		id = ENG_dday1
		available = {
			date > 1942.1.1
		}
		prerequisite = { focus = radar_focus }
		prerequisite = { focus = uk_amphibious_focus }		
		icon = GFX_Noras_Eng_DDAY_1
		x = -4
		y = 3
		relative_position_id = shadow_scheme_focus
		cost = 10
		ai_will_do = {
			factor = 1
		}
		completion_reward = {
			USA = {transfer_state = 843}		
			set_technology = {
				decimetric_radar = 1
			}
			135 = {	
				add_building_construction = {
					type = radar_station
					level = 1
				}
			}
			338 = {	
				add_building_construction = {
					type = radar_station
					level = 1
				}
			}
			128 = {
				add_building_construction = {
					type = radar_station
					level = 1
				}
			}
			129 = {
				add_building_construction = {
					type = radar_station
					level = 1
				}
			}
			123 = {	
				add_building_construction = {
					type = radar_station
					level = 1
				}
			}
			127 = {	
				add_building_construction = {
					type = radar_station
					level = 1
				}
			}
			126 = {
				add_building_construction = {
					type = radar_station
					level = 1
				}
			}
			125 = {
				add_building_construction = {
					type = radar_station
					level = 1
				}
			}
			every_country = { limit = { is_in_faction_with = ENG } add_ideas = GDU_allies_ddayprep_1 }
		}
	}
	
	focus = {
		id = ENG_dday2
		available = {
			date > 1942.1.1
		}
		prerequisite = { focus = ENG_dday1 }
		icon = GFX_Noras_Eng_DDAY_2
		x = 0
		y = 1
		relative_position_id = ENG_dday1
		cost = 10
		ai_will_do = {
			factor = 1
		}
		completion_reward = {
			set_technology = {
				improved_decimetric_radar = 1
			}
			135 = {	
				add_building_construction = {
					type = radar_station
					level = 1
				}
			}
			338 = {	
				add_building_construction = {
					type = radar_station
					level = 1
				}
			}
			128 = {
				add_building_construction = {
					type = radar_station
					level = 1
				}
			}
			129 = {
				add_building_construction = {
					type = radar_station
					level = 1
				}
			}
			123 = {	
				add_building_construction = {
					type = radar_station
					level = 1
				}
			}
			127 = {	
				add_building_construction = {
					type = radar_station
					level = 1
				}
			}
			126 = {
				add_building_construction = {
					type = radar_station
					level = 1
				}
			}
			125 = {
				add_building_construction = {
					type = radar_station
					level = 1
				}
			}
			every_country = {
				limit = { is_in_faction_with = ENG }
				swap_ideas = {
					remove_idea = GDU_allies_ddayprep_1
					add_idea = GDU_allies_ddayprep_2
				}
			}
		}
	}	

	focus = {
		id = ENG_dday3
		available = {
			date > 1942.1.1
		}
		prerequisite = { focus = ENG_dday2 }
		icon = GFX_Noras_Eng_DDAY_3
		x = 0
		y = 1
		relative_position_id = ENG_dday2
		cost = 10
		ai_will_do = {
			factor = 1
		}
		completion_reward = {
			set_technology = {
				centimetric_radar = 1
			}
			135 = {	
				add_building_construction = {
					type = radar_station
					level = 1
				}
			}
			338 = {	
				add_building_construction = {
					type = radar_station
					level = 1
				}
			}
			128 = {
				add_building_construction = {
					type = radar_station
					level = 1
				}
			}
			129 = {
				add_building_construction = {
					type = radar_station
					level = 1
				}
			}
			123 = {	
				add_building_construction = {
					type = radar_station
					level = 1
				}
			}
			127 = {	
				add_building_construction = {
					type = radar_station
					level = 1
				}
			}
			126 = {
				add_building_construction = {
					type = radar_station
					level = 1
				}
			}
			125 = {
				add_building_construction = {
					type = radar_station
					level = 1
				}
			}
			every_country = {
				limit = { is_in_faction_with = ENG }
				swap_ideas = {
					remove_idea = GDU_allies_ddayprep_2
					add_idea = GDU_allies_ddayprep_3
				}
			}			
		}
	}
	
	focus = {
		id = ENG_dday4
		available = {
			date > 1942.1.1
		}
		prerequisite = { focus = ENG_dday3 }
		icon = GFX_Noras_Eng_DDAY_4
		x = 0
		y = 1
		relative_position_id = ENG_dday3
		cost = 10
		ai_will_do = {
			factor = 1
		}
		completion_reward = {
			set_technology = {
				improved_centimetric_radar = 1
			}
			135 = {	
				add_building_construction = {
					type = radar_station
					level = 1
				}
			}
			338 = {	
				add_building_construction = {
					type = radar_station
					level = 1
				}
			}
			128 = {
				add_building_construction = {
					type = radar_station
					level = 1
				}
			}
			129 = {
				add_building_construction = {
					type = radar_station
					level = 1
				}
			}
			123 = {	
				add_building_construction = {
					type = radar_station
					level = 1
				}
			}
			127 = {	
				add_building_construction = {
					type = radar_station
					level = 1
				}
			}
			126 = {
				add_building_construction = {
					type = radar_station
					level = 1
				}
			}
			125 = {
				add_building_construction = {
					type = radar_station
					level = 1
				}
			}
			every_country = {
				limit = { is_in_faction_with = ENG }
				swap_ideas = {
					remove_idea = GDU_allies_ddayprep_3
					add_idea = GDU_allies_ddayprep_4
				}
			}			
		}
	}
	
	focus = {
		id = ENG_dday5
		available = {
			date > 1942.1.1
		}
		prerequisite = { focus = ENG_dday4 }
		icon = GFX_Noras_Eng_DDAY_5
		x = 0
		y = 1
		relative_position_id = ENG_dday4
		cost = 10
		ai_will_do = {
			factor = 1
		}
		completion_reward = {
			set_technology = {
				advanced_centimetric_radar = 1
			}
			135 = {	
				add_building_construction = {
					type = radar_station
					level = 1
				}
			}
			338 = {	
				add_building_construction = {
					type = radar_station
					level = 1
				}
			}
			128 = {
				add_building_construction = {
					type = radar_station
					level = 1
				}
			}
			129 = {
				add_building_construction = {
					type = radar_station
					level = 1
				}
			}
			123 = {	
				add_building_construction = {
					type = radar_station
					level = 1
				}
			}
			127 = {	
				add_building_construction = {
					type = radar_station
					level = 1
				}
			}
			126 = {
				add_building_construction = {
					type = radar_station
					level = 1
				}
			}
			125 = {
				add_building_construction = {
					type = radar_station
					level = 1
				}
			}
			every_country = {
				limit = { is_in_faction_with = ENG }
				swap_ideas = {
					remove_idea = GDU_allies_ddayprep_4
					add_idea = GDU_allies_ddayprep_5
				}
			}		
		}
	}	



	focus = {
		id = ENG_dday6
		available = {
			date > 1944.1.1
		}
		prerequisite = { focus = ENG_dday5 }
		prerequisite = { focus = ENG_husky3 }
		prerequisite = { focus = mulberry_harbours_focus }
		
		icon = GFX_Noras_Eng_DDAY_5
		x = 0
		y = 1
		relative_position_id = ENG_dday5
		cost = 10
		ai_will_do = {
			factor = 1
		}
		completion_reward = {
			every_country = {
				limit = { is_in_faction_with = ENG }
				swap_ideas = {
					remove_idea = GDU_allies_ddayprep_5
					add_idea = GDU_allies_ddayprep_6
				}
			}		
		}
	}

	focus = {
		id = ENG_dday7
		available = {
			date > 1944.1.1
		}
		prerequisite = { focus = ENG_dday6 }
		
		icon = GFX_Noras_Eng_DDAY_5
		x = 0
		y = 1
		relative_position_id = ENG_dday6
		cost = 10
		ai_will_do = {
			factor = 1
		}
		completion_reward = {
			every_country = {
				limit = { is_in_faction_with = ENG }
				swap_ideas = {
					remove_idea = GDU_allies_ddayprep_6
					add_idea = GDU_allies_ddayprep_7
				}
			}		
		}
	}
	
	focus = {
		id = ENG_dday8
		available = {
			date > 1944.1.1
		}
		prerequisite = { focus = ENG_dday7 }
		prerequisite = { focus = ENG_husky3 }
		prerequisite = { focus = mulberry_harbours_focus }
		
		icon = GFX_Noras_Eng_DDAY_5
		x = 0
		y = 1
		relative_position_id = ENG_dday7
		cost = 10
		ai_will_do = {
			factor = 1
		}
		completion_reward = {
			every_country = {
				limit = { is_in_faction_with = ENG }
				swap_ideas = {
					remove_idea = GDU_allies_ddayprep_7
					add_idea = GDU_allies_ddayprep_8
				}
			}		
		}
	}	

	focus = {
		id = ENG_husky1
		available = {
			NOT = {
				ITA = {
					controls_state = 451
				}
				ITA = {
					controls_state = 450
				}	
				ITA = {
					controls_state = 448
				}	
				ITA = {
					controls_state = 458
				}				
			}

		}
		prerequisite = { focus = ENG_dday2 }
		icon = GFX_Noras_Eng_Husky_1
		x = 2
		y = 2
		relative_position_id = ENG_dday1
		cost = 5
		ai_will_do = {
			factor = 1
		}
		completion_reward = {
			set_technology = {
				centimetric_radar = 1
			}
			450 = {	
				add_building_construction = {
					type = radar_station
					level = 4
				}
			}
			451 = {	
				add_building_construction = {
					type = radar_station
					level = 4
				}
			}
			663 = {
				add_building_construction = {
					type = radar_station
					level = 4
				}
			}
			449 = {
				add_building_construction = {
					type = radar_station
					level = 4
				}
			}
			448 = {	
				add_building_construction = {
					type = radar_station
					level = 4
				}
			}
			665 = {	
				add_building_construction = {
					type = radar_station
					level = 4
				}
			}
			805 = {
				add_building_construction = {
					type = radar_station
					level = 4
				}
			}
			458 = {
				add_building_construction = {
					type = radar_station
					level = 4
				}
			}
		}
	}		

	focus = {
		id = ENG_husky2
		available = {
			NOT = {
				ITA = {
					controls_state = 451
				}
				ITA = {
					controls_state = 450
				}	
				ITA = {
					controls_state = 448
				}	
				ITA = {
					controls_state = 458
				}				
			}

		}
		prerequisite = { focus = ENG_dday3 }
		icon = GFX_Noras_Eng_Husky_2
		x = 2
		y = 3
		relative_position_id = ENG_dday1
		cost = 5
		ai_will_do = {
			factor = 1
		}
		completion_reward = {
			set_technology = {
				improved_centimetric_radar = 1
			}
			450 = {	
				add_building_construction = {
					type = radar_station
					level = 1
				}
			}
			451 = {	
				add_building_construction = {
					type = radar_station
					level = 1
				}
			}
			663 = {
				add_building_construction = {
					type = radar_station
					level = 1
				}
			}
			449 = {
				add_building_construction = {
					type = radar_station
					level = 1
				}
			}
			448 = {	
				add_building_construction = {
					type = radar_station
					level = 1
				}
			}
			665 = {	
				add_building_construction = {
					type = radar_station
					level = 1
				}
			}
			805 = {
				add_building_construction = {
					type = radar_station
					level = 1
				}
			}
			458 = {
				add_building_construction = {
					type = radar_station
					level = 1
				}
			}
		}
	}	

	focus = {
		id = ENG_husky3
		available = {
			NOT = {
				ITA = {
					controls_state = 451
				}
				ITA = {
					controls_state = 450
				}	
				ITA = {
					controls_state = 448
				}	
				ITA = {
					controls_state = 458
				}				
			}

		}
		prerequisite = { focus = ENG_dday4 }
		icon = GFX_Noras_Eng_Husky_3
		x = 2
		y = 4
		relative_position_id = ENG_dday1
		cost = 5
		ai_will_do = {
			factor = 1
		}
		completion_reward = {
			set_technology = {
				advanced_centimetric_radar = 1
			}
			450 = {	
				add_building_construction = {
					type = radar_station
					level = 1
				}
			}
			451 = {	
				add_building_construction = {
					type = radar_station
					level = 1
				}
			}
			663 = {
				add_building_construction = {
					type = radar_station
					level = 1
				}
			}
			449 = {
				add_building_construction = {
					type = radar_station
					level = 1
				}
			}
			448 = {	
				add_building_construction = {
					type = radar_station
					level = 1
				}
			}
			665 = {	
				add_building_construction = {
					type = radar_station
					level = 1
				}
			}
			805 = {
				add_building_construction = {
					type = radar_station
					level = 1
				}
			}
			458 = {
				add_building_construction = {
					type = radar_station
					level = 1
				}
			}
		}
	}



}
