
state={
	id=43
	name="STATE_43" # Northern Hungary
	manpower = 3750752
	resources={
		steel=50
		aluminium=150
		tungsten=15
		chromium=15		
	}
	
	state_category = large_city

	history={
		owner = HUN
		buildings = {
			infrastructure = 5
			industrial_complex = 4
			air_base = 4
			fuel_silo = 2
		}
		victory_points = {
			5821 3
		}
		add_core_of = HUN
	}

	provinces={
		684 716 3731 6670 6751 5821
	}
}
