state={
	id=72
	name="STATE_72"
	manpower = 152000
	
	state_category = rural
	
	history={
		owner = CZE
		buildings = {
			infrastructure = 5
			industrial_complex = 1
		}
		add_core_of = CZE


	}

	provinces={
		5927
	}
}
