technologies = {

	mobile_warfare = {



		xor = { superior_firepower trench_warfare mass_assault }

		path = {
			leads_to_tech = delay
			research_cost_coeff = 1
		}

		category_all_armor = {
			breakthrough = 0.20
		}

		planning_speed = 0.5
		army_speed_factor = 0.10
		enable_tactic = tactic_unexpected_thrust
		org_loss_when_moving = -0.1

		doctrine = yes
		research_cost = 0.01

		folder = {
			name = land_doctrine_folder
			position = { x = 0 y = 0 }
		}

		categories = {
			land_doctrine
			cat_mobile_warfare
		}

		ai_will_do = {
			factor = 20
			modifier = {
				not = {
					has_army_experience > 120
				}
				factor = 0.8
			}
		}

		ai_research_weights = {
			armor = 4.0
		}
	}

	delay = {

		xp_research_type = army
		xp_research_cost = 100
		xp_research_bonus = 0.5

		category_all_infantry = {
			max_organisation = 15
		}


		enable_tactic = tactic_delay

		path = {
			leads_to_tech = elastic_defence
			research_cost_coeff = 1
		}


		doctrine = yes
		research_cost = 3.6

		categories = {
			land_doctrine
			cat_mobile_warfare
		}

		folder = {
			name = land_doctrine_folder
			position = { x = 0 y = 2 }
		}

		ai_will_do = {
			factor = 20
			modifier = {
				not = {
					has_army_experience > 120
				}
				factor = 0.8
			}
		}

		on_research_complete = {
			if = {
				limit = { original_tag = SOV }
				army_experience = 200
			}
		}

		ai_research_weights = {
			armor = 3.0
		}
	}


	elastic_defence = {

		land_reinforce_rate = 0.05
		xp_research_type = army
		xp_research_cost = 100
		xp_research_bonus = 0.5

		category_tanks = {
			max_organisation = 1
		}

		category_all_armor = {
			maximum_speed = 0.1
		}


		enable_tactic = tactic_elastic_defense

		path = {
			leads_to_tech = mobile_infantry
			research_cost_coeff = 1
		}
		path = {
			leads_to_tech = armored_spearhead
			research_cost_coeff = 1
		}


		doctrine = yes
		research_cost = 3.6

		categories = {
			land_doctrine
			cat_mobile_warfare
		}

		folder = {
			name = land_doctrine_folder
			position = { x = 0 y = 4 }
		}

		ai_will_do = {
			factor = 20
			modifier = {
				not = {
					has_army_experience > 120
				}
				factor = 0.8
			}
		}

		ai_research_weights = {
			armor = 2.0
		}

		on_research_complete = {
			if = {
				limit = { original_tag = SOV }
				army_experience = 200
			}
		}
	}

	mobile_infantry = { #Branch focuses on infantry, included Motorised and Mechanised.

		xp_research_type = army
		xp_research_cost = 100
		xp_research_bonus = 0.5

		xor={
			armored_spearhead
		}
		motorized = {
			maximum_speed = 0.1
			default_morale = 0.2
			breakthrough = 0.2
		}
		mot_artillery_brigade = {
			maximum_speed = 0.1
			default_morale = 0.2
			breakthrough = 0.2			
		}
		mot_anti_tank_brigade = {
			maximum_speed = 0.1
			default_morale = 0.2
			breakthrough = 0.2			
		}
		mot_anti_air_brigade = {
			maximum_speed = 0.1
			default_morale = 0.2
			breakthrough = 0.2			
		}
		mechanized = {
			maximum_speed = 0.1
			default_morale = 0.2
			breakthrough = 0.2			
		}
		amphibious_mechanized = {
			maximum_speed = 0.1
			default_morale = 0.2
			breakthrough = 0.2			
		}


		path = {
			leads_to_tech = mass_motorization
			research_cost_coeff = 1
		}


		doctrine = yes
		research_cost = 3.6

		categories = {
			land_doctrine
			cat_mobile_warfare
		}

		folder = {
			name = land_doctrine_folder
			position = { x = -2 y = 6 }
		}

		ai_will_do = {
			factor = 20
			modifier = {
				not = {
					has_army_experience > 120
				}
				factor = 0.8
			}

			modifier = {
				tag = GER
				factor = 2
			}
		}

		ai_research_weights = {
			armor = 1.0
			defensive = -2.0
			motorized_equipment = 3.0
			cat_mechanized_equipment = 5.0
		}

		on_research_complete = {
			if = {
				limit = { original_tag = SOV }
				army_experience = 200
			}
		}
	}

	mass_motorization = {
		xp_research_type = army
		xp_research_cost = 100
		xp_research_bonus = 0.5

		motorized = {
			max_organisation = 10
			default_morale = 0.1
		}
		mechanized = {
			max_organisation = 10
			default_morale = 0.1
		}

		path = {
			leads_to_tech = mechanised_offensive
			research_cost_coeff = 1
		}


		doctrine = yes
		research_cost = 3.6

		categories = {
			land_doctrine
			cat_mobile_warfare
		}

		folder = {
			name = land_doctrine_folder
			position = { x = -2 y = 8 }
		}

		ai_will_do = {
			factor = 20
			modifier = {
				not = {
					has_army_experience > 120
				}
				factor = 0.8
			}
		}

		ai_research_weights = {
			armor = 2.0
			defensive = -12.0
		}

		on_research_complete = {
			if = {
				limit = { original_tag = SOV }
				army_experience = 200
			}
		}
	}

	mechanised_offensive = {
		xp_research_type = army
		xp_research_cost = 100
		xp_research_bonus = 0.5

		motorized = {
			max_organisation = 15

		}
		mechanized = {
			max_organisation = 15
		}
		amphibious_mechanized = {
			max_organisation = 15
		}

		category_tanks = {
			max_organisation = 3
		}

		category_assault_guns = {
			breakthrough = 0.20
			soft_attack = 0.075
			hard_attack = 0.075
		}

		support_heavy_armor = {
			soft_attack = 0.05
			hard_attack = 0.05
		}

		light_sp_artillery_brigade = {
			soft_attack = 0.05
			hard_attack = 0.05
		}
		medium_sp_artillery_brigade = {
			soft_attack = 0.05
			hard_attack = 0.05
		}
		heavy_sp_artillery_brigade = {
			soft_attack = 0.05
			hard_attack = 0.05
		}
		super_heavy_sp_artillery_brigade = {
			soft_attack = 0.05
			hard_attack = 0.05
		}
		light_tank_destroyer_brigade = {
			soft_attack = 0.05
			hard_attack = 0.05
		}
		medium_tank_destroyer_brigade = {
			soft_attack = 0.05
			hard_attack = 0.05
		}
		heavy_tank_destroyer_brigade = {
			soft_attack = 0.05
			hard_attack = 0.05
		}
		super_heavy_tank_destroyer_brigade = {
			soft_attack = 0.05
			hard_attack = 0.05
		}
		light_sp_anti_air_brigade = {
			soft_attack = 0.05
			hard_attack = 0.05
		}
		medium_sp_anti_air_brigade = {
			soft_attack = 0.05
			hard_attack = 0.05
		}
		heavy_sp_anti_air_brigade = {
			soft_attack = 0.05
			hard_attack = 0.05
		}
		super_heavy_sp_anti_air_brigade = {
			soft_attack = 0.05
			hard_attack = 0.05
		}

		enable_tactic = tactic_blitz


		path = {
			leads_to_tech = kampfgruppe
			research_cost_coeff = 1
		}


		doctrine = yes
		research_cost = 3.6

		categories = {
			land_doctrine
			cat_mobile_warfare
		}


		folder = {
			name = land_doctrine_folder
			position = { x = -2 y = 10 }
		}

		ai_will_do = {
			factor = 20
			modifier = {
				not = {
					has_army_experience > 120
				}
				factor = 0.8
			}
		}

		ai_research_weights = {
			armor = 2.0
			motorized_equipment = 2.0
			cat_mechanized_equipment = 2.0
		}

		on_research_complete = {
			if = {
				limit = { original_tag = SOV }
				army_experience = 200
			}
		}
	}

	armored_spearhead = { #Branch focused on Tanks
		xp_research_type = army
		xp_research_cost = 100
		xp_research_bonus = 0.5
		category_tanks = {
			max_organisation = 3
			breakthrough = 0.20
		}

		enable_tactic = tactic_blitz


		xor = {
			mobile_infantry
		}

		path = {
			leads_to_tech = schwerpunk
			research_cost_coeff = 1
		}


		doctrine = yes
		research_cost = 3.6

		categories = {
			land_doctrine
			cat_mobile_warfare
		}



		folder = {
			name = land_doctrine_folder
			position = { x = 2 y = 6 }
		}

		ai_will_do = {
			factor = 20
			modifier = {
				not = {
					has_army_experience > 120
				}
				factor = 0.8
			}
		}

		ai_research_weights = {
			armor = 16.0
			offensive = -1.0
			cat_mechanized_equipment = 2.0
		}

		on_research_complete = {
			if = {
				limit = { original_tag = SOV }
				army_experience = 200
			}
		}
	}

	schwerpunk = {
		xp_research_type = army
		xp_research_cost = 100
		xp_research_bonus = 0.5
		category_tanks = {
			max_organisation = 2
		}

		category_all_armor = {
			default_morale = 0.1
		}

		support_heavy_armor = {
			soft_attack = 0.05
			hard_attack = 0.05
		}
		
		category_assault_guns = {
			breakthrough = 0.20
			soft_attack = 0.075
			hard_attack = 0.075
		}		

		path = {
			leads_to_tech = blitzkrieg
			research_cost_coeff = 1
		}


		doctrine = yes
		research_cost = 3.6

		categories = {
			land_doctrine
			cat_mobile_warfare
		}

		folder = {
			name = land_doctrine_folder
			position = { x = 2 y = 8 }
		}

		ai_will_do = {
			factor = 20
			modifier = {
				not = {
					has_army_experience > 120
				}
				factor = 0.8
			}
		}

		ai_research_weights = {
			armor = 2.5
			offensive = -2.0
			cat_mechanized_equipment = 1.5
		}

		on_research_complete = {
			if = {
				limit = { original_tag = SOV }
				army_experience = 200
			}
		}
	}

	blitzkrieg = {
		xp_research_type = army
		xp_research_cost = 100
		xp_research_bonus = 0.5
		category_tanks = {
			max_organisation = 1
		}

		category_all_armor = {
			default_morale = 0.1
		}

		enable_tactic = tactic_breakthrough

		motorized = {
			max_organisation = 5
		}
		mechanized = {
			max_organisation = 5
		}
		amphibious_mechanized = {
			max_organisation = 5
		}
		air_cas_present_factor = 0.075

		path = {
			leads_to_tech = kampfgruppe
			research_cost_coeff = 1
		}


		doctrine = yes
		research_cost = 3.6

		categories = {
			land_doctrine
			cat_mobile_warfare
		}


		folder = {
			name = land_doctrine_folder
			position = { x = 2 y = 10 }
		}

		ai_will_do = {
			factor = 20
			modifier = {
				not = {
					has_army_experience > 120
				}
				factor = 0.8
			}
		}

		ai_research_weights = {
			armor = 2.5
			cat_mechanized_equipment = 1.5
		}

		on_research_complete = {
			if = {
				limit = { original_tag = SOV }
				army_experience = 200
			}
		}
	}

	kampfgruppe = {
		xp_research_type = army
		xp_research_cost = 100
		xp_research_bonus = 0.5
		motorized = {
			default_morale = 0.2
			max_organisation = 10
		}
		mechanized = {
			default_morale = 0.2
			max_organisation = 10
		}
		mot_artillery_brigade = {
			default_morale = 0.2
			max_organisation = 10
		}
		mot_anti_tank_brigade = {
			default_morale = 0.2
			max_organisation = 10
		}
		mot_anti_air_brigade = {
			default_morale = 0.2
			max_organisation = 10
		}
		# faster planning
		planning_speed = 0.2

		signal_company = {
			recon = 1
			initiative = 0.05
		}

		enable_tactic = tactic_overwhelming_fire

		path = {
			leads_to_tech = firebrigades
			research_cost_coeff = 1
		}
		path = {
			leads_to_tech = volkssturm
			research_cost_coeff = 1
		}


		doctrine = yes
		research_cost = 3.6

		categories = {
			land_doctrine
			cat_mobile_warfare
		}


		folder = {
			name = land_doctrine_folder
			position = { x = 0 y = 12 }
		}

		ai_will_do = {
			factor = 20
			modifier = {
				not = {
					has_army_experience > 120
				}
				factor = 0.8
			}
		}

		ai_research_weights = {
			armor = 3.0
		}

		on_research_complete = {
			if = {
				limit = { original_tag = SOV }
				army_experience = 200
			}
		}
	}

	firebrigades = { #Branch focused on mobile warfares
		xp_research_type = army
		xp_research_cost = 100
		xp_research_bonus = 0.5
		xor={
			volkssturm
		}

		category_all_infantry = {
			max_organisation = 10
		}
		category_tanks = {
			max_organisation = 2
		}

		light_sp_artillery_brigade = {
			maximum_speed = 0.10
		}
		medium_sp_artillery_brigade = {
			maximum_speed = 0.10
		}
		heavy_sp_artillery_brigade = {
			maximum_speed = 0.10
		}
		super_heavy_sp_artillery_brigade = {
			maximum_speed = 0.10
		}
		light_tank_destroyer_brigade = {
			maximum_speed = 0.10
		}
		medium_tank_destroyer_brigade = {
			maximum_speed = 0.10
		}
		heavy_tank_destroyer_brigade = {
			maximum_speed = 0.10
		}
		super_heavy_tank_destroyer_brigade = {
			maximum_speed = 0.10
		}
		light_sp_anti_air_brigade = {
			maximum_speed = 0.10
		}
		medium_sp_anti_air_brigade = {
			maximum_speed = 0.10
		}
		heavy_sp_anti_air_brigade = {
			maximum_speed = 0.10
		}
		super_heavy_sp_anti_air_brigade = {
			maximum_speed = 0.10
		}

		path = {
			leads_to_tech = backhand_blow
			research_cost_coeff = 1
		}


		doctrine = yes
		research_cost = 3.6

		categories = {
			land_doctrine
			cat_mobile_warfare
		}


		folder = {
			name = land_doctrine_folder
			position = { x = 2 y = 14 }
		}

		ai_will_do = {
			factor = 20
			modifier = {
				not = {
					has_army_experience > 120
				}
				factor = 0.8
			}
		}

		ai_research_weights = {
			armor = 2.0
		}

		on_research_complete = {
			if = {
				limit = { original_tag = SOV }
				army_experience = 200
			}
		}
	}

	backhand_blow = {

		xp_research_type = army
		xp_research_cost = 100
		xp_research_bonus = 0.5
		enable_tactic = tactic_backhand_blow

		motorized = {
			combat_width = -0.5
		}
		mechanized = {
			combat_width = -0.5
		}
		
		path = {
			leads_to_tech = modern_blitzkrieg
			research_cost_coeff = 1
		}


		doctrine = yes
		research_cost = 3.6

		categories = {
			land_doctrine
			cat_mobile_warfare
		}


		folder = {
			name = land_doctrine_folder
			position = { x = 2 y = 16 }
		}

		ai_will_do = {
			factor = 20
		}

		ai_research_weights = {
			armor = 2.0
		}

		on_research_complete = {
			if = {
				limit = { original_tag = SOV }
				army_experience = 200
			}

			country_event = gduevents.45
		}
	}

	modern_blitzkrieg = {
		xp_research_type = army
		xp_research_cost = 100
		xp_research_bonus = 0.5
		
		path = {
			leads_to_tech = naval_invasion_tactics_MW		
			research_cost_coeff = 1
		}

		path = {
			leads_to_tech = MW_3rd_Right_1		
			research_cost_coeff = 1
		}
		
		path = {
			leads_to_tech = MW_3rd_Left_1			
			research_cost_coeff = 1
		}
		
		category_all_armor = {
			max_organisation = 3
			soft_attack = 0.05
			hard_attack = 0.05
		}

		category_all_armor = {
			default_morale = 0.2
		}

		support_heavy_armor = {
			soft_attack = 0.15
			hard_attack = 0.15
		}
		category_assault_guns = {
			breakthrough = 0.20
		}

		category_light_infantry = {
			max_organisation = 10
			default_morale = 0.10
		}
		

		doctrine = yes
		research_cost = 3.6

		categories = {
			land_doctrine
			cat_mobile_warfare
		}


		folder = {
			name = land_doctrine_folder
			position = { x = 2 y = 18 }
		}

		ai_will_do = {
			factor = 20
			modifier = {
				not = {
					has_army_experience > 120
				}
				factor = 0.8
			}
		}

		ai_research_weights = {
			armor = 2.0
		}

		on_research_complete = {
			if = {
				limit = { original_tag = SOV }
				army_experience = 200
			}
		}
	}

	volkssturm = {
		xp_research_type = army
		xp_research_cost = 100
		xp_research_bonus = 0.5
		xor={
			firebrigades
		}

		light_sp_artillery_brigade = {
			maximum_speed = 0.10
		}
		medium_sp_artillery_brigade = {
			maximum_speed = 0.10
		}
		heavy_sp_artillery_brigade = {
			maximum_speed = 0.10
		}
		super_heavy_sp_artillery_brigade = {
			maximum_speed = 0.10
		}
		light_tank_destroyer_brigade = {
			maximum_speed = 0.10
		}
		medium_tank_destroyer_brigade = {
			maximum_speed = 0.10
		}
		heavy_tank_destroyer_brigade = {
			maximum_speed = 0.10
		}
		super_heavy_tank_destroyer_brigade = {
			maximum_speed = 0.10
		}
		light_sp_anti_air_brigade = {
			maximum_speed = 0.10
		}
		medium_sp_anti_air_brigade = {
			maximum_speed = 0.10
		}
		heavy_sp_anti_air_brigade = {
			maximum_speed = 0.10
		}
		super_heavy_sp_anti_air_brigade = {
			maximum_speed = 0.10
		}

		conscription = 0.01

		path = {
			leads_to_tech = nd_conscription
			research_cost_coeff = 1
		}


		doctrine = yes
		research_cost = 3.6

		categories = {
			land_doctrine
			cat_mobile_warfare
		}


		folder = {
			name = land_doctrine_folder
			position = { x = -2 y = 14 }
		}

		ai_will_do = {
			factor = 20
			modifier = {
				not = {
					has_army_experience > 120
				}
				factor = 0.8
			}
			modifier = {
				tag = GER
				factor = 3
			}
		}

		ai_research_weights = {
			armor = 2.0
		}

		on_research_complete = {
			if = {
				limit = { original_tag = SOV }
				army_experience = 200
			}
		}
	}

	nd_conscription = {
		xp_research_type = army
		xp_research_cost = 100
		xp_research_bonus = 0.5
		
		conscription = 0.01
		
		light_armor = {
			combat_width = -0.5
		}

		path = {
			leads_to_tech = werwolf_guerillas
			research_cost_coeff = 1
		}


		doctrine = yes
		research_cost = 3.6

		categories = {
			land_doctrine
			cat_mobile_warfare
		}


		folder = {
			name = land_doctrine_folder
			position = { x = -2 y = 16 }
		}

		ai_will_do = {
			factor = 20
		}

		ai_research_weights = {
			armor = 2.0
		}

		on_research_complete = {
			if = {
				limit = { original_tag = SOV }
				army_experience = 200
			}
		}
	}

	werwolf_guerillas = {

		xp_research_type = army
		xp_research_cost = 100
		xp_research_bonus = 0.5
		#Increased Partisan effect on your land occupied by others
		#partisan_effect = 0.1 #10% more partisan effects

		path = {
			leads_to_tech = naval_invasion_tactics_MW		
			research_cost_coeff = 1
		}

		path = {
			leads_to_tech = MW_3rd_Right_1		
			research_cost_coeff = 1
		}
		
		path = {
			leads_to_tech = MW_3rd_Left_1			
			research_cost_coeff = 1
		}		

		category_all_armor = {
			max_organisation = 3
			soft_attack = 0.05
			hard_attack = 0.05
		}

		category_all_armor = {
			default_morale = 0.2
		}

		support_heavy_armor = {
			soft_attack = 0.15
			hard_attack = 0.15
		}
		category_assault_guns = {
			breakthrough = 0.20
		}

		category_light_infantry = {
			max_organisation = 10
			default_morale = 0.10
		}

		enable_tactic = tactic_backhand_blow
		enable_tactic = tactic_default_backhand_blow
		
		doctrine = yes
		research_cost = 3.6

		categories = {
			land_doctrine
			cat_mobile_warfare
		}


		folder = {
			name = land_doctrine_folder
			position = { x = -2 y = 18 }
		}

		ai_will_do = {
			factor = 20
		}

		ai_research_weights = {
			armor = 2.0
		}

		on_research_complete = {
			if = {
				limit = { original_tag = SOV }
				army_experience = 200
			}
		}
	}

	superior_firepower = {



		xor = { mobile_warfare trench_warfare mass_assault }

		path = {
			leads_to_tech = sup_delay
			research_cost_coeff = 1
		}

		category_front_line = {
			 soft_attack = 0.2
		}
amphibious_invasion_defence = 0.15
land_reinforce_rate = 0.05
		enable_tactic = tactic_barrage

		doctrine = yes
		research_cost = 0.01

		categories = {
			land_doctrine
			cat_superior_firepower
		}


		folder = {
			name = land_doctrine_folder
			position = { x = 0 y = 0 }
		}

		ai_will_do = {
			factor = 20
			modifier = {
				not = {
					has_army_experience > 120
				}
				factor = 0.8
			}
		}

		ai_research_weights = {
			artillery = 4.0
		}
	}

	sup_delay = {
		xp_research_type = army
		xp_research_cost = 100
		xp_research_bonus = 0.5
		category_light_infantry = {
			max_organisation = 10
		}

		category_army = {
			default_morale = 0.05
		}

		enable_tactic = tactic_delay

		path = {
			leads_to_tech = mobile_defence
			research_cost_coeff = 1
		}

		doctrine = yes
		research_cost = 3.6

		categories = {
			land_doctrine
			cat_superior_firepower
		}

		folder = {
			name = land_doctrine_folder
			position = { x = 0 y = 2 }
		}

		ai_will_do = {
			modifier = {
				not = {
					has_army_experience > 120
				}
				factor = 0.8
			}
			factor = 20
		}

		ai_research_weights = {
			artillery = 3.0
		}

		on_research_complete = {
			if = {
				limit = { original_tag = SOV }
				army_experience = 200
			}
		}
	}

	mobile_defence = {
		xp_research_type = army
		xp_research_cost = 100
		xp_research_bonus = 0.5
		category_all_infantry = {
			defense = 0.20
		}
		category_line_artillery = {
			defense = 0.20
		}

		enable_tactic = tactic_elastic_defense


		path = {
			leads_to_tech = intergrated_support
			research_cost_coeff = 1
		}
		path = {
			leads_to_tech = dispersed_support
			research_cost_coeff = 1
		}


		doctrine = yes
		research_cost = 3.6

		categories = {
			land_doctrine
			cat_superior_firepower
		}


		folder = {
			name = land_doctrine_folder
			position = { x = 0 y = 4 }
		}

		ai_will_do = {
			modifier = {
				not = {
					has_army_experience > 120
				}
				factor = 0.8
			}
			factor = 20
		}

		ai_research_weights = {
			artillery = 2.0
		}

		on_research_complete = {
			if = {
				limit = { original_tag = SOV }
				army_experience = 200
			}
		}
	}

	intergrated_support = { #This Branch is focused on boosting stuff in the support column
		xp_research_type = army
		xp_research_cost = 100
		xp_research_bonus = 0.5
		xor={
			dispersed_support
		}


		category_support_battalions = {
			max_organisation = 10
			soft_attack = 0.25
		}

		support_heavy_armor = {
			max_organisation = 10
			soft_attack = 0.05
		}
		category_assault_guns = {
			max_organisation = 10
			soft_attack = 0.25
		}

		path = {
			leads_to_tech = regimental_combat_teams
			research_cost_coeff = 1
		}


		doctrine = yes
		research_cost = 3.6

		categories = {
			land_doctrine
			cat_superior_firepower
		}


		folder = {
			name = land_doctrine_folder
			position = { x = 2 y = 6 }
		}

		ai_will_do = {
			modifier = {
				not = {
					has_army_experience > 120
				}
				factor = 0.8
			}
			factor = 20
		}

		ai_research_weights = {
			artillery = 1.0
		}

		on_research_complete = {
			if = {
				limit = { original_tag = SOV }
				army_experience = 200
			}
		}
	}

	regimental_combat_teams = {
		xp_research_type = army
		xp_research_cost = 100
		xp_research_bonus = 0.5
		category_support_battalions = {
			max_organisation = 10
			soft_attack = 0.25
		}

		support_heavy_armor = {
			max_organisation = 10
			soft_attack = 0.05
		}
		category_assault_guns = {
			max_organisation = 10
			soft_attack = 0.25
		}

		enable_tactic = tactic_overwhelming_fire

		path = {
			leads_to_tech = sup_mechanized_offensive
			research_cost_coeff = 1
		}

		doctrine = yes
		research_cost = 3.6

		categories = {
			land_doctrine
			cat_superior_firepower
		}


		folder = {
			name = land_doctrine_folder
			position = { x = 2 y = 8 }
		}

		ai_will_do = {
			modifier = {
				not = {
					has_army_experience > 120
				}
				factor = 0.8
			}
			factor = 20
		}

		ai_research_weights = {
			artillery = 1.0
		}

		on_research_complete = {
			if = {
				limit = { original_tag = SOV }
				army_experience = 200
			}
		}
	}

	dispersed_support = { # Branch is focused on support units as part of the regular brigades
		xp_research_type = army
		xp_research_cost = 100
		xp_research_bonus = 0.5
		xor = {
			intergrated_support
		}

		category_line_artillery = {
			default_morale = 0.3
		}

		support_heavy_armor = {
			default_morale = 0.3
		}
		category_assault_guns = {
			default_morale = 0.3
		}

		path = {
			leads_to_tech = overwhelming_firepower
			research_cost_coeff = 1
		}


		doctrine = yes
		research_cost = 3.6

		categories = {
			land_doctrine
			cat_superior_firepower
		}


		folder = {
			name = land_doctrine_folder
			position = { x = -2 y = 6 }
		}

		ai_will_do = {
			modifier = {
				not = {
					has_army_experience > 120
				}
				factor = 0.8
			}
			factor = 20
		}

		ai_research_weights = {
			artillery = 1.0
		}

		on_research_complete = {
			if = {
				limit = { original_tag = SOV }
				army_experience = 200
			}
		}
	}

	overwhelming_firepower = {
		xp_research_type = army
		xp_research_cost = 100
		xp_research_bonus = 0.5
		category_line_artillery = {
			soft_attack = 0.15
		}

		support_heavy_armor = {
			soft_attack = 0.1
		}
		category_assault_guns = {
			soft_attack = 0.5
		}

		enable_tactic = tactic_overwhelming_fire

		path = {
			leads_to_tech = sup_mechanized_offensive
			research_cost_coeff = 1
		}


		doctrine = yes
		research_cost = 3.6

		categories = {
			land_doctrine
			cat_superior_firepower
		}


		folder = {
			name = land_doctrine_folder
			position = { x = -2 y = 8 }
		}

		ai_will_do = {
			modifier = {
				not = {
					has_army_experience > 120
				}
				factor = 0.8
			}
			factor = 20
		}

		ai_research_weights = {
			artillery = 1.0
		}

		on_research_complete = {
			if = {
				limit = { original_tag = SOV }
				army_experience = 200
			}
		}
	}

	sup_mechanized_offensive = {
		xp_research_type = army
		xp_research_cost = 100
		xp_research_bonus = 0.5
		category_all_armor = {
			breakthrough = 0.10
		}


		enable_tactic = tactic_blitz


		path = {
			leads_to_tech = concentrated_fire_plans
			research_cost_coeff = 1
		}
		path = {
			leads_to_tech = centralized_fire_control
			research_cost_coeff = 1
		}


		doctrine = yes
		research_cost = 3.6

		categories = {
			land_doctrine
			cat_superior_firepower
		}


		folder = {
			name = land_doctrine_folder
			position = { x = 0 y = 10 }
		}

		ai_will_do = {
			factor = 20
			modifier = {
				not = {
					has_army_experience > 120
				}
				factor = 0.8
			}
		}

		ai_research_weights = {
			artillery = 1.0
		}

		on_research_complete = {
			if = {
				limit = { original_tag = SOV }
				army_experience = 200
			}
		}
	}

	concentrated_fire_plans = {
		xp_research_type = army
		xp_research_cost = 100
		xp_research_bonus = 0.5
		xor = {
			centralized_fire_control
		}

		category_army = {
			hard_attack = 0.10
		}

		path = {
			leads_to_tech = combined_arms
			research_cost_coeff = 1
		}


		doctrine = yes
		research_cost = 3.6

		categories = {
			land_doctrine
			cat_superior_firepower
		}


		folder = {
			name = land_doctrine_folder
			position = { x = -2 y = 12 }
		}

		ai_will_do = {
			factor = 20
			modifier = {
				not = {
					has_army_experience > 120
				}
				factor = 0.8
			}
		}

		ai_research_weights = {
			artillery = 1.0
		}

		on_research_complete = {
			if = {
				limit = { original_tag = SOV }
				army_experience = 200
			}
		}
	}

	combined_arms = {
		xp_research_type = army
		xp_research_cost = 100
		xp_research_bonus = 0.5

		category_all_armor = {
			hard_attack = 0.10
			soft_attack = 0.10
		}

		enable_tactic = tactic_breakthrough

		path = {
			leads_to_tech = tactical_control
			research_cost_coeff = 1
		}


		doctrine = yes
		research_cost = 3.6

		categories = {
			land_doctrine
			cat_superior_firepower
		}


		folder = {
			name = land_doctrine_folder
			position = { x = -2 y = 14 }
		}

		ai_will_do = {
			factor = 20
			modifier = {
				not = {
					has_army_experience > 120
				}
				factor = 0.8
			}
		}

		ai_research_weights = {
			artillery = 1.0
		}

		on_research_complete = {
			if = {
				limit = { original_tag = SOV }
				army_experience = 200
			}
		}
	}

	tactical_control = {
		xp_research_type = army
		xp_research_cost = 100
		xp_research_bonus = 0.5
		land_reinforce_rate = 0.05

		enable_tactic = tactic_tactical_withdrawal

		path = {
			leads_to_tech = air_land_battle
			research_cost_coeff = 1
		}


		doctrine = yes
		research_cost = 3.6

		categories = {
			land_doctrine
			cat_superior_firepower
		}


		folder = {
			name = land_doctrine_folder
			position = { x = -2 y = 16 }
		}

		ai_will_do = {
			factor = 20
			modifier = {
				not = {
					has_army_experience > 120
				}
				factor = 0.8
			}
		}

		ai_research_weights = {
			artillery = 1.0
		}

		on_research_complete = {
			if = {
				limit = { original_tag = SOV }
				army_experience = 200
			}
		}
	}

	air_land_battle = {
		xp_research_type = army
		xp_research_cost = 100
		xp_research_bonus = 0.5
		
		path = {
			leads_to_tech = naval_invasion_tactics_SF
			research_cost_coeff = 1
		}
		
		category_front_line = {
			max_organisation = 5
		}

		#combat advantage when air superior
		army_bonus_air_superiority_factor = 0.40

		doctrine = yes
		research_cost = 3.6

		categories = {
			land_doctrine
			cat_superior_firepower
		}


		folder = {
			name = land_doctrine_folder
			position = { x = -2 y = 18 }
		}

		ai_will_do = {
			factor = 20
			modifier = {
				not = {
					has_army_experience > 120
				}
				factor = 0.8
			}
		}

		ai_research_weights = {
			artillery = 1.0
		}

		on_research_complete = {
			if = {
				limit = { original_tag = SOV }
				army_experience = 200
			}
		}
	}

	centralized_fire_control = {
		xp_research_type = army
		xp_research_cost = 100
		xp_research_bonus = 0.5
		xor = {
			concentrated_fire_plans
		}

		category_all_infantry = {
			soft_attack = 0.05
		}
		category_artillery = {
			soft_attack = 0.05
		}
		path = {
			leads_to_tech = forward_observers
			research_cost_coeff = 1
		}

		doctrine = yes
		research_cost = 3.6

		categories = {
			land_doctrine
			cat_superior_firepower
		}


		folder = {
			name = land_doctrine_folder
			position = { x = 2 y = 12 }
		}

		ai_will_do = {
			factor = 20
			modifier = {
				not = {
					has_army_experience > 120
				}
				factor = 0.8
			}
		}

		ai_research_weights = {
			artillery = 1.0
		}

		on_research_complete = {
			if = {
				limit = { original_tag = SOV }
				army_experience = 200
			}
		}
	}

	forward_observers = {

		land_reinforce_rate = 0.05
		xp_research_type = army
		xp_research_cost = 100
		xp_research_bonus = 0.5
		category_recon = {
			recon = 1
		}

		path = {
			leads_to_tech = advanced_firebases
			research_cost_coeff = 1
		}


		doctrine = yes
		research_cost = 3.6

		categories = {
			land_doctrine
			cat_superior_firepower
		}


		folder = {
			name = land_doctrine_folder
			position = { x = 2 y = 14 }
		}

		ai_will_do = {
			factor = 20
			modifier = {
				not = {
					has_army_experience > 120
				}
				factor = 0.8
			}
		}

		ai_research_weights = {
			artillery = 1.0
		}

		on_research_complete = {
			if = {
				limit = { original_tag = SOV }
				army_experience = 200
			}
		}
	}

	advanced_firebases = {
		xp_research_type = army
		xp_research_cost = 100
		xp_research_bonus = 0.5
		category_all_infantry = {
			max_organisation = 10
			default_morale = 0.05
		}
		category_tanks = {
			max_organisation = 2
		}

		category_all_armor = {
			default_morale = 0.05
		}

		enable_tactic = tactic_tactical_withdrawal

		path = {
			leads_to_tech = shock_and_awe
			research_cost_coeff = 1
		}


		doctrine = yes
		research_cost = 3.6

		categories = {
			land_doctrine
			cat_superior_firepower
		}


		folder = {
			name = land_doctrine_folder
			position = { x = 2 y = 16 }
		}

		ai_will_do = {
			factor = 20
			modifier = {
				not = {
					has_army_experience > 120
				}
				factor = 0.8
			}
		}

		ai_research_weights = {
			artillery = 1.0
		}

		on_research_complete = {
			if = {
				limit = { original_tag = SOV }
				army_experience = 200
			}
		}
	}

	shock_and_awe = {
		xp_research_type = army
		xp_research_cost = 100
		xp_research_bonus = 0.5
		category_all_infantry = {
			soft_attack = 0.05
			hard_attack = 0.05
		}
		category_artillery = {
			soft_attack = 0.05
			hard_attack = 0.05
		}
		enable_tactic = tactic_breakthrough

		doctrine = yes
		research_cost = 3.6

		categories = {
			land_doctrine
			cat_superior_firepower
		}

		path = {
			leads_to_tech = naval_invasion_tactics_SF
			research_cost_coeff = 1
		}
		
		folder = {
			name = land_doctrine_folder
			position = { x = 2 y = 18 }
		}

		ai_will_do = {
			factor = 20
			modifier = {
				not = {
					has_army_experience > 120
				}
				factor = 0.8
			}
		}

		ai_research_weights = {
			artillery = 1.0
		}

		on_research_complete = {
			if = {
				limit = { original_tag = SOV }
				army_experience = 200
			}
		}
	}


	trench_warfare = {

		xor = { mobile_warfare superior_firepower mass_assault }

		land_reinforce_rate = 0.2

		logistics_company = {
			supply_consumption_factor = -0.05
		}

		path = {
			leads_to_tech = grand_battle_plan
			research_cost_coeff = 1
		}

		doctrine = yes
		research_cost = 0.01

		categories = {
			land_doctrine
			cat_grand_battle_plan
		}


		folder = {
			name = land_doctrine_folder
			position = { x = 0 y = 0 }
		}

		ai_will_do = {
			modifier = {
				not = {
					has_army_experience > 120
				}
				factor = 0.8
			}
			factor = 20
		}

		ai_research_weights = {
			infantry_weapons = 1.5
			motorized_equipment = 1.0
		}
	}

	grand_battle_plan = {

		xp_research_type = army
		xp_research_cost = 100
		xp_research_bonus = 0.5
		path = {
			leads_to_tech = prepared_defense
			research_cost_coeff = 1
		}

		category_all_infantry = {
			max_organisation = 10
		}
		category_special_forces = {
			max_organisation = 30
			max_strength = 5		
		}
		category_army = {
			default_morale = 0.05
		}

		doctrine = yes
		research_cost = 3.6

		categories = {
			land_doctrine
			cat_grand_battle_plan
		}


		folder = {
			name = land_doctrine_folder
			position = { x = 0 y = 2 }
		}

		ai_will_do = {
			factor = 20
			modifier = {
				not = {
					has_army_experience > 120
				}
				factor = 0.8
			}

			modifier = {
				factor = 0.25
				has_idea = FRA_victors_of_wwi
			}
		}

		ai_research_weights = {
			infantry_weapons = 2.5
			motorized_equipment = 2.0
		}

		on_research_complete = {
			if = {
				limit = { original_tag = SOV }
				army_experience = 200
			}
		}
	}



	prepared_defense = {
		xp_research_type = army
		xp_research_cost = 100
		xp_research_bonus = 0.5

		max_dig_in = 5
		dig_in_speed_factor = 0.15
		
		path = {
			leads_to_tech = grand_assault
			research_cost_coeff = 1
		}

		doctrine = yes
		research_cost = 3.6

		categories = {
			land_doctrine
			cat_grand_battle_plan
		}


		folder = {
			name = land_doctrine_folder
			position = { x = 0 y = 4 }
		}

		ai_will_do = {
			factor = 20
			modifier = {
				not = {
					has_army_experience > 120
				}
				factor = 0.8
			}
		}

		ai_research_weights = {
			infantry_weapons = 1.5
			motorized_equipment = 1.0
		}

		on_research_complete = {
			if = {
				limit = { original_tag = SOV }
				army_experience = 200
			}
		}
	}

	grand_assault = {
		xp_research_type = army
		xp_research_cost = 100
		xp_research_bonus = 0.5
		
		category_army = {
			defense = 0.05
			breakthrough = 0.05
		}
		
		enable_tactic = tactic_planned_attack

		path = {
			leads_to_tech = grand_mechanized_offensive
			research_cost_coeff = 1
		}
		path = {
			leads_to_tech = infantry_offensive
			research_cost_coeff = 1
		}

		doctrine = yes
		research_cost = 3.6

		categories = {
			land_doctrine
			cat_grand_battle_plan
		}


		folder = {
			name = land_doctrine_folder
			position = { x = 0 y = 6 }
		}

		ai_will_do = {
			factor = 20
			modifier = {
				not = {
					has_army_experience > 120
				}
				factor = 0.8
			}
		}

		ai_research_weights = {
			infantry_weapons = 1.5
			motorized_equipment = 1.0
		}

		on_research_complete = {
			if = {
				limit = { original_tag = SOV }
				army_experience = 200
			}
		}
	}

	grand_mechanized_offensive = {
		xp_research_type = army
		xp_research_cost = 100
		xp_research_bonus = 0.5
		xor = {
			infantry_offensive
		}
		armored_car = {
			combat_width = -1		
		}
		category_special_forces = {
			supply_consumption_factor = -0.005		
			desert = {
				movement = 0.3
			}
			desert_africa = {
				movement = 0.3
			}				
		}
		category_light_infantry = {
			supply_consumption_factor = -0.005		
			desert = {
				movement = 0.4
			}
			desert_africa = {
				movement = 0.4
			}			
		}
		anti_tank_brigade = {
			desert = {
				movement = 0.35
			}
			desert_africa = {
				movement = 0.35
			}			
		}
		artillery_brigade = {
			desert = {
				movement = 0.35
			}
			desert_africa = {
				movement = 0.35
			}			
		}
		anti_air_brigade = {
			desert = {
				movement = 0.35
			}
			desert_africa = {
				movement = 0.35
			}			
		}		
		category_non_support = {
	        desert = {
                attack = 0.075
                defence = 0.075
				movement = 0.05
            }
			mountain = {
				attack = 0.075
			}
			hills = {
				attack = 0.025
				defence = 0.025
			}
			marsh = {
				attack = 0.05
				defence = 0.05
			}
			river = {
				attack = 0.05
				defence = 0.05
			}

	        desert_africa = {
                attack = 0.075
                defence = 0.075
				movement = 0.05
            }
			mountain_africa = {
				attack = 0.075
			}
			hills_africa = {
				attack = 0.025
				defence = 0.025
			}
			marsh_africa = {
				attack = 0.05
				defence = 0.05
			}			
		}
	
		enable_tactic = tactic_blitz
		enable_tactic = tactic_elastic_defense


		path = {
			leads_to_tech = assault_concentration
			research_cost_coeff = 1
		}

		doctrine = yes
		research_cost = 3.6

		categories = {
			land_doctrine
			cat_grand_battle_plan
		}


		folder = {
			name = land_doctrine_folder
			position = { x = -2 y = 8 }
		}

		ai_will_do = {
			factor = 20
			modifier = {
				not = {
					has_army_experience > 120
				}
				factor = 0.8
			}
		}

		ai_research_weights = {
			infantry_weapons = 1.5
			motorized_equipment = 1.0
			cat_mechanized_equipment = 1.0
		}

		on_research_complete = {
			if = {
				limit = { original_tag = SOV }
				army_experience = 200
			}
            custom_effect_tooltip = semi_motorized_desert_warfare_details
		}
	}

	assault_concentration = {
		xp_research_type = army
		xp_research_cost = 100
		xp_research_bonus = 0.5
				
		category_army = {
			hard_attack = 0.2
			soft_attack = 0.05
		}
		anti_tank_brigade = {
			max_organisation = 10
			hard_attack = -0.15
		}
		mot_anti_tank_brigade = {
			max_organisation = 10
			hard_attack = -0.15
		}
		mot_anti_air_brigade = {
			max_organisation = 5
		}
		mechanized = {
			max_organisation = 5
		}
		motorized = {
			max_organisation = 5
		}
		category_tanks = {
			max_organisation = 5
			soft_attack = 0.05
		}	

		enable_tactic = tactic_overwhelming_fire

		path = {
			leads_to_tech = branch_interoperation
			research_cost_coeff = 1
		}

		doctrine = yes
		research_cost = 3.6

		categories = {
			land_doctrine
			cat_grand_battle_plan
		}


		folder = {
			name = land_doctrine_folder
			position = { x = -2 y = 10 }
		}

		ai_will_do = {
			factor = 20
			modifier = {
				not = {
					has_army_experience > 120
				}
				factor = 0.8
			}
		}

		ai_research_weights = {
			infantry_weapons = 1.5
			motorized_equipment = 1.0
			cat_mechanized_equipment = 1.0
		}

		on_research_complete = {
			if = {
				limit = { original_tag = SOV }
				army_experience = 200
			}
		}
	}

	branch_interoperation = {
		xp_research_type = army
		xp_research_cost = 100
		xp_research_bonus = 0.5
		
		anti_tank_brigade {
			defense = -0.2
		
		}
		mot_anti_tank_brigade {
			defense = -0.2
		}

		path = {
			leads_to_tech = assault_breakthrough
			research_cost_coeff = 1
		}

		doctrine = yes
		research_cost = 3.6

		categories = {
			land_doctrine
			cat_grand_battle_plan
		}


		folder = {
			name = land_doctrine_folder
			position = { x = -2 y = 12 }
		}

		ai_will_do = {
			factor = 20
			modifier = {
				not = {
					has_army_experience > 120
				}
				factor = 0.8
			}
		}

		ai_research_weights = {
			infantry_weapons = 1.5
			motorized_equipment = 1.0
		}
	}

	assault_breakthrough = {
		xp_research_type = army
		xp_research_cost = 100
		xp_research_bonus = 0.5

		category_support_battalions = {
			max_organisation = 15
			defense = 0.3
		}
		
			category_all_infantry =
		{
			breakthrough = 0.35
		}
		
		enable_tactic = tactic_breakthrough


		path = {
			leads_to_tech = central_planning
			research_cost_coeff = 1
		}

		doctrine = yes
		research_cost = 3.6

		categories = {
			land_doctrine
			cat_grand_battle_plan
		}


		folder = {
			name = land_doctrine_folder
			position = { x = -2 y = 14 }
		}

		ai_will_do = {
			factor = 20
			modifier = {
				not = {
					has_army_experience > 120
				}
				factor = 0.8
			}
		}

		ai_research_weights = {
			infantry_weapons = 1.5
			motorized_equipment = 1.0
			cat_mechanized_equipment = 1.0
		}

		on_research_complete = {
			if = {
				limit = { original_tag = SOV }
				army_experience = 200
			}
		}
	}

	central_planning = {
		xp_research_type = army
		xp_research_cost = 100
		xp_research_bonus = 0.5

		
		support_heavy_armor = {
			max_organisation = 20
			soft_attack = 0.5
		}
		category_assault_guns = {
			max_organisation = 40
			soft_attack = 1.0
			breakthrough = 0.15			
		}
	
		category_all_infantry = {
			max_organisation = 7
		}

		path = {
			leads_to_tech = c3i_theory
			research_cost_coeff = 1
		}

		doctrine = yes
		research_cost = 3.6

		categories = {
			land_doctrine
			cat_grand_battle_plan
		}


		folder = {
			name = land_doctrine_folder
			position = { x = -2 y = 16 }
		}

		ai_will_do = {
			factor = 20
			modifier = {
				not = {
					has_army_experience > 120
				}
				factor = 0.8
			}
		}

		ai_research_weights = {
			infantry_weapons = 1.5
			motorized_equipment = 1.0
		}

		on_research_complete = {
			if = {
				limit = { original_tag = SOV }
				army_experience = 200
			}
		}
	}

	c3i_theory = {
		xp_research_type = army
		xp_research_cost = 100
		xp_research_bonus = 0.5

		path = {
			leads_to_tech = naval_invasion_tactics_GBP
			research_cost_coeff = 1
		}

		amphibious_invasion_defence = 0.15
		no_supply_grace = 72
		
		infantry = {
			amphibious = {
				attack = 0.075
			}
		}

		amphibious_mechanized = {
			max_organisation = 5
		}
		amphibious_armor = {
			max_organisation = 15
			soft_attack = 0.25
		}


		doctrine = yes
		research_cost = 3.6

		categories = {
			land_doctrine
			cat_grand_battle_plan
		}


		folder = {
			name = land_doctrine_folder
			position = { x = -2 y = 18 }
		}

		ai_will_do = {
			factor = 20
			modifier = {
				not = {
					has_army_experience > 120
				}
				factor = 0.8
			}
		}

		ai_research_weights = {
			infantry_weapons = 1.5
			motorized_equipment = 1.0
		}

		on_research_complete = {
			if = {
				limit = { original_tag = SOV }
				army_experience = 200
			}
            custom_effect_tooltip = c3i_theory_details
		}
	}

	infantry_offensive = {
		xp_research_type = army
		xp_research_cost = 100
		xp_research_bonus = 0.5
		xor = {
			grand_mechanized_offensive
		}
		artillery_brigade = {
			max_organisation = 10
		}
		rocket_artillery_brigade = {
			max_organisation = 10
		}		
		mot_artillery_brigade = {
			max_organisation = 10
		}
		mot_anti_air_brigade = {
			max_organisation = 5
		}
		mechanized = {
			max_organisation = 5
		}
		motorized = {
			max_organisation = 5
		}
		category_tanks = {
			max_organisation = 5
		}		
		enable_tactic = tactic_infantry_charge

		path = {
			leads_to_tech = armored_operations
			research_cost_coeff = 1
		}

		doctrine = yes
		research_cost = 3.6

		categories = {
			land_doctrine
			cat_grand_battle_plan
		}


		folder = {
			name = land_doctrine_folder
			position = { x = 2 y = 8 }
		}

		ai_will_do = {
			factor = 20
			modifier = {
				not = {
					has_army_experience > 120
				}
				factor = 0.8
			}
		}

		ai_research_weights = {
			infantry_weapons = 1.5
			motorized_equipment = 1.0
		}

		on_research_complete = {
			if = {
				limit = { original_tag = SOV }
				army_experience = 200
			}
		}
	}

	armored_operations = {
		xp_research_type = army
		xp_research_cost = 100
		xp_research_bonus = 0.5

		armored_car = {
			combat_width = -1		
		}

		category_army {
			soft_attack = 0.25
			hard_attack = 0.05
		}
		
		category_artillery {
			soft_attack = -0.2
		}
		
		category_tanks = {
			hard_attack = 0.05
		}		

		enable_tactic = tactic_blitz
		enable_tactic = tactic_elastic_defense


		path = {
			leads_to_tech = infiltration_assault
			research_cost_coeff = 1
		}

		doctrine = yes
		research_cost = 3.6

		categories = {
			land_doctrine
			cat_grand_battle_plan
		}


		folder = {
			name = land_doctrine_folder
			position = { x = 2 y = 10 }
		}

		ai_will_do = {
			factor = 20
			modifier = {
				not = {
					has_army_experience > 120
				}
				factor = 0.8
			}
		}

		ai_research_weights = {
			infantry_weapons = 1.5
			motorized_equipment = 1.0
		}

		on_research_complete = {
			if = {
				limit = { original_tag = SOV }
				army_experience = 200
			}
		}
	}

	infiltration_assault = {

		xp_research_type = army
		xp_research_cost = 100
		xp_research_bonus = 0.5

		no_supply_grace = 24

		############
		category_non_support = {
	        jungle = {
                attack = 0.1
                defence = 0.075
				movement = 0.05
            }
			mountain = {
				attack = 0.075
				movement = 0.025			
			}
			hills = {
				attack = 0.05
				defence = 0.025
				movement = 0.025				
			}
			marsh = {
				attack = 0.05
				defence = 0.05
			}
			river = {
				attack = 0.075
				defence = 0.05
				movement = 0.025				
			}	
			
	        jungle_africa = {
                attack = 0.1
                defence = 0.075
				movement = 0.05
            }
			mountain_africa = {
				attack = 0.075
				movement = 0.025			
			}
			hills_africa = {
				attack = 0.05
				defence = 0.025
				movement = 0.025				
			}
			marsh_africa = {
				attack = 0.05
				defence = 0.05
			}			
		}
		category_light_infantry = {
			supply_consumption_factor = -0.005		
		}		

		path = {
			leads_to_tech = night_assault_tactics
			research_cost_coeff = 1
		}

		doctrine = yes
		research_cost = 3.6

		categories = {
			land_doctrine
			cat_grand_battle_plan
		}


		folder = {
			name = land_doctrine_folder
			position = { x = 2 y = 12 }
		}

		ai_will_do = {
			factor = 20
			modifier = {
				not = {
					has_army_experience > 120
				}
				factor = 0.8
			}
		}

		ai_research_weights = {
			infantry_weapons = 1.5
			motorized_equipment = 1.0
		}

		on_research_complete = {
			if = {
				limit = { original_tag = SOV }
				army_experience = 200
			}
            custom_effect_tooltip = infiltration_assault_details			
		}
	}

	night_assault_tactics = {
		xp_research_type = army
		xp_research_cost = 100
		xp_research_bonus = 0.5

		category_support_battalions = {
			max_organisation = 5
		}
		
			
		category_artillery{

		breakthrough = 0.2
		}
		
		
		
		path = {
			leads_to_tech = attritional_containment
			research_cost_coeff = 1
		}



		doctrine = yes
		research_cost = 3.6

		categories = {
			land_doctrine
			cat_grand_battle_plan
		}


		folder = {
			name = land_doctrine_folder
			position = { x = 2 y = 14 }
		}

		ai_will_do = {
			factor = 20
			modifier = {
				not = {
					has_army_experience > 120
				}
				factor = 0.8
			}
		}

		ai_research_weights = {
			infantry_weapons = 1.5
			motorized_equipment = 1.0
		}

		on_research_complete = {
			if = {
				limit = { original_tag = SOV }
				army_experience = 200
			}
		}
	}

	attritional_containment = {
		xp_research_type = army
		xp_research_cost = 100
		xp_research_bonus = 0.5

		support_heavy_armor = {
			max_organisation = 20
			soft_attack = 0.5
		}
		category_assault_guns = {
			max_organisation = 40
			soft_attack = 1.0
			breakthrough = 0.15
		}
		
	out_of_supply_factor = -0.3
		
		category_special_forces {
		default_morale = 0.07
		}

		path = {
			leads_to_tech = infiltration_in_depth
			research_cost_coeff = 1
		}

		doctrine = yes
		research_cost = 3.6

		categories = {
			land_doctrine
			cat_grand_battle_plan
		}


		folder = {
			name = land_doctrine_folder
			position = { x = 2 y = 16 }
		}

		ai_will_do = {
			factor = 20
			modifier = {
				not = {
					has_army_experience > 120
				}
				factor = 0.8
			}
		}

		ai_research_weights = {
			infantry_weapons = 1.5
			motorized_equipment = 1.0
		}

		on_research_complete = {
			if = {
				limit = { original_tag = SOV }
				army_experience = 200
			}
		}
	}

	infiltration_in_depth = {
		xp_research_type = army
		xp_research_cost = 100
		xp_research_bonus = 0.5

		path = {
			leads_to_tech = naval_invasion_tactics_GBP
			research_cost_coeff = 1
		}

		amphibious_invasion_defence = 0.05
		
		out_of_supply_factor = -0.1
		attrition = -0.20 #take 20% less attrition losses
		
		infantry = {
			amphibious = {
				attack = 0.075
			}
		}

		amphibious_mechanized = {
			max_organisation = 20
		}


		doctrine = yes
		research_cost = 3.6

		categories = {
			land_doctrine
			cat_grand_battle_plan
		}

		folder = {
			name = land_doctrine_folder
			position = { x = 2 y = 18 }
		}

		ai_will_do = {
			factor = 20
			modifier = {
				not = {
					has_army_experience > 120
				}
				factor = 0.8
			}
		}

		ai_research_weights = {
			infantry_weapons = 1.5
			motorized_equipment = 1.0
		}

		on_research_complete = {
			if = {
				limit = { original_tag = SOV }
				army_experience = 200
			}
            custom_effect_tooltip = infiltration_in_depth_details
		}
	}


	mass_assault = {

		xp_research_type = army
		xp_research_cost = 100
		xp_research_bonus = 0.5

		xor = { mobile_warfare superior_firepower trench_warfare }

		path = {
			leads_to_tech = pocket_defence
			research_cost_coeff = 1
		}

		army_speed_factor = 0.1
		minimum_training_level = -0.1

		doctrine = yes
		research_cost = 0.01

		categories = {
			land_doctrine
			cat_mass_assault
		}


		folder = {
			name = land_doctrine_folder
			position = { x = 0 y = 0 }
		}

		ai_will_do = {
			factor = 20
		}

		ai_research_weights = {
			industry = 2.0
		}
	}

	pocket_defence = {

		xp_research_type = army
		xp_research_cost = 100
		xp_research_bonus = 0.5


		#reduced pocketed combat penalty and/or reduces the out of supply penalty or increases time before moving to worse penalty
		no_supply_grace = 144 # more hours before supply penalty changes
		out_of_supply_factor = -0.2

		path = {
			leads_to_tech = defence_in_depth
			research_cost_coeff = 1
		}

		category_support_battalions = {
			max_organisation = 2.5
		}

		doctrine = yes
		research_cost = 3.6

		categories = {
			land_doctrine
			cat_mass_assault
		}


		folder = {
			name = land_doctrine_folder
			position = { x = 0 y = 2 }
		}

		ai_will_do = {
			factor = 20
		}

		ai_research_weights = {
			industry = 2.0
		}

		on_research_complete = {
			if = {
				limit = { original_tag = SOV }
				army_experience = 200
			}
		}
	}

	defence_in_depth = {

		xp_research_type = army
		xp_research_cost = 100
		xp_research_bonus = 0.5

		max_dig_in = 5
		dig_in_speed_factor = 0.4

		infantry = {
			max_organisation = 5
			max_strength = 7
		}


		path = {
			leads_to_tech = large_front_operations
			research_cost_coeff = 1
		}
		path = {
			leads_to_tech = peoples_army
			research_cost_coeff = 1
		}

		doctrine = yes
		research_cost = 3.6

		categories = {
			land_doctrine
			cat_mass_assault
		}


		folder = {
			name = land_doctrine_folder
			position = { x = 0 y = 4 }
		}

		ai_will_do = {
			factor = 20
		}

		ai_research_weights = {
			industry = 2.0
		}

		on_research_complete = {
			if = {
				limit = { original_tag = SOV }
				army_experience = 200
			}
		}
	}

	large_front_operations = {

		xp_research_type = army
		xp_research_cost = 100
		xp_research_bonus = 0.5

		xor = {
			peoples_army
		}


		logistics_company = {
			supply_consumption_factor = -0.075
		}

		anti_tank_brigade = {
			max_strength = 3
		}
		artillery_brigade = {
			max_strength = 9.75
		}
		mot_artillery_brigade = {
			max_strength = 12
		}
		mot_anti_tank_brigade = {
			max_strength = 3
		}
		rocket_artillery_brigade = {
			max_strength = 9.75
		}
		motorized_rocket_brigade = {
			max_strength = 12
			max_organisation = 2.5
		}
		anti_air_brigade = {
			max_strength = 4.5
			max_organisation = 2.5
		}

		support_heavy_armor = {
			max_strength = 8
		}
		category_assault_guns = {
			max_strength = 8
		}


		enable_tactic = tactic_relentless_assault
		enable_tactic = tactic_default_relentless_assault
		enable_tactic = tactic_human_wave_tactics
		enable_tactic = tactic_default_human_wave_tactics
		path = {
			leads_to_tech = deep_operations
			research_cost_coeff = 1
		}

		doctrine = yes
		research_cost = 3.6

		categories = {
			land_doctrine
			cat_mass_assault
		}


		folder = {
			name = land_doctrine_folder
			position = { x = -2 y = 6 }
		}

		ai_will_do = {
			factor = 20
		}

		ai_research_weights = {
			industry = 2.0
		}

		on_research_complete = {
			if = {
				limit = { original_tag = SOV }
				army_experience = 200
			}
		}
	}

	deep_operations = {

		xp_research_type = army
		xp_research_cost = 100
		xp_research_bonus = 0.5

		mechanized = {
			max_strength = 7
		}
		motorized = {
			max_strength = 8
		}

		category_all_armor = {
			default_morale = 0.1
		}

		enable_tactic = tactic_blitz
		enable_tactic = tactic_default_blitz

		path = {
			leads_to_tech = operational_concentration
			research_cost_coeff = 1
		}

		doctrine = yes
		research_cost = 3.6

		categories = {
			land_doctrine
			cat_mass_assault
		}


		folder = {
			name = land_doctrine_folder
			position = { x = -2 y = 8 }
		}

		ai_will_do = {
			factor = 20
		}

		ai_research_weights = {
			industry = 2.0
		}

		on_research_complete = {
			if = {
				limit = { original_tag = SOV }
				army_experience = 200
			}
		}
	}

	operational_concentration = {

		xp_research_type = army
		xp_research_cost = 100
		xp_research_bonus = 0.5

		planning_speed = 0.05
		land_reinforce_rate = 0.08

		motorized = {
			max_organisation = 5
			default_morale = 0.1
		}

		mechanized = {
			max_organisation = 5
			default_morale = 0.1
		}

		infantry = {
			max_organisation = 10
			default_morale = 0.2
		}

		enable_tactic = tactic_elastic_defense
		enable_tactic = tactic_default_elastic_defense
		path = {
			leads_to_tech = vast_offensives
			research_cost_coeff = 1
		}

		doctrine = yes
		research_cost = 3.6

		categories = {
			land_doctrine
			cat_mass_assault
		}


		folder = {
			name = land_doctrine_folder
			position = { x = -2 y = 10 }
		}

		ai_will_do = {
			factor = 20
		}

		ai_research_weights = {
			industry = 2.0
		}

		on_research_complete = {
			if = {
				limit = { original_tag = SOV }
				army_experience = 200
			}
		}
	}

	vast_offensives = {

		xp_research_type = army
		xp_research_cost = 100
		xp_research_bonus = 0.5

		artillery_brigade = {
			soft_attack = 0.05
		}

		infantry = {
			max_organisation = 13
			breakthrough = 0.10
		}

		mechanized = {
			max_organisation = 21
			default_morale = 0.05
			breakthrough = 0.10
		}
		motorized = {
			max_organisation = 21
			default_morale = 0.05
			breakthrough = 0.10
		}


		enable_tactic = tactic_overwhelming_fire
		enable_tactic = tactic_default_overwhelming_fire

		path = {
			leads_to_tech = breakthrough_priority
			research_cost_coeff = 1
		}

		doctrine = yes
		research_cost = 3.6

		categories = {
			land_doctrine
			cat_mass_assault
		}


		folder = {
			name = land_doctrine_folder
			position = { x = -2 y = 12 }
		}

		ai_will_do = {
			factor = 20
		}

		ai_research_weights = {
			industry = 2.0
		}

		on_research_complete = {
			if = {
				limit = { original_tag = SOV }
				army_experience = 200
			}
		}
	}

	breakthrough_priority = {

		xp_research_type = army
		xp_research_cost = 100
		xp_research_bonus = 0.5

		category_all_armor = {
			max_organisation = 1
			breakthrough = 0.10
			default_morale = 0.05
		}

		recon_factor = 0.05

		motorized_rocket_brigade = {
			breakthrough = 0.30
			default_morale = 0.15
		}


		enable_tactic = tactic_breakthrough
		enable_tactic = tactic_default_breakthrough
		path = {
			leads_to_tech = mechanized_wave
			research_cost_coeff = 1
		}

		doctrine = yes
		research_cost = 3.6

		categories = {
			land_doctrine
			cat_mass_assault
		}


		folder = {
			name = land_doctrine_folder
			position = { x = -2 y = 14 }
		}

		ai_will_do = {
			factor = 20
		}

		ai_research_weights = {
			industry = 2.0
		}

		on_research_complete = {
			if = {
				limit = { original_tag = SOV }
				army_experience = 200
			}
		}
	}

	mechanized_wave = {

		xp_research_type = army
		xp_research_cost = 100
		xp_research_bonus = 0.5


		category_all_armor = {
			default_morale = 0.05
		}

		mechanized = {
			max_organisation = 15
			default_morale = 0.05
		}
		motorized = {
			max_organisation = 15
			default_morale = 0.05
		}
		motorized_rocket_brigade = {
			max_organisation = 5
		}


		path = {
			leads_to_tech = continuous_offensive
			research_cost_coeff = 1
		}

		doctrine = yes
		research_cost = 3.6

		categories = {
			land_doctrine
			cat_mass_assault
		}


		folder = {
			name = land_doctrine_folder
			position = { x = -2 y = 16 }
		}

		ai_will_do = {
			factor = 20
		}

		ai_research_weights = {
			industry = 2.0
			cat_mechanized_equipment = 3.0
		}

		on_research_complete = {
			if = {
				limit = { original_tag = SOV }
				army_experience = 200
			}
		}
	}

	continuous_offensive = {

		xp_research_type = army
		xp_research_cost = 100
		xp_research_bonus = 0.5

		path = {
			leads_to_tech = naval_invasion_tactics_MA
			research_cost_coeff = 1
		}

		category_army = {
			default_morale = 0.10
		}
		motorized_rocket_brigade = {
			soft_attack = 0.05
		}

		enable_tactic = tactic_backhand_blow
		enable_tactic = tactic_default_backhand_blow

		doctrine = yes
		research_cost = 3.6

		categories = {
			land_doctrine
			cat_mass_assault
		}


		folder = {
			name = land_doctrine_folder
			position = { x = -2 y = 18 }
		}

		ai_will_do = {
			factor = 20
		}

		ai_research_weights = {
			industry = 2.0
		}

		on_research_complete = {
			if = {
				limit = { original_tag = SOV }
				army_experience = 200
			}
		}
	}

	peoples_army = {

		xp_research_type = army
		xp_research_cost = 100
		xp_research_bonus = 0.5


		xor = {
			large_front_operations
		}


		attrition = -0.10 #take 10% less attrition losses
		land_reinforce_rate = 0.1
		enable_tactic = tactic_human_wave_tactics
		enable_tactic = tactic_default_human_wave_tactics

		category_all_infantry = {
			hard_attack = 0.2
		}
		


		path = {
			leads_to_tech = human_infantry_offensive
			research_cost_coeff = 1
		}

		doctrine = yes
		research_cost = 3.6

		categories = {
			land_doctrine
			cat_mass_assault
		}


		folder = {
			name = land_doctrine_folder
			position = { x = 2 y = 6 }
		}

		ai_will_do = {
			factor = 20
		}

		ai_research_weights = {
			industry = 2.0
		}

		on_research_complete = {
			if = {
				limit = { original_tag = SOV }
				army_experience = 200
			}
		}
	}

	human_infantry_offensive = {

		xp_research_type = army
		xp_research_cost = 100
		xp_research_bonus = 0.5

		infantry = {
			default_morale = 0.25
		}
		
		infantry = {
			breakthrough = 0.10
		}
		

		path = {
			leads_to_tech = large_front_offensive
			research_cost_coeff = 1
		}

		doctrine = yes
		research_cost = 3.6

		categories = {
			land_doctrine
			cat_mass_assault
		}


		folder = {
			name = land_doctrine_folder
			position = { x = 2 y = 9 }
		}

		ai_will_do = {
			factor = 20
		}

		ai_research_weights = {
			industry = 2.0
		}

		on_research_complete = {
			if = {
				limit = { original_tag = SOV }
				army_experience = 200
			}
		}
	}

	large_front_offensive = {

		xp_research_type = army
		xp_research_cost = 100
		xp_research_bonus = 0.5

		category_light_infantry = {
			max_organisation = 10
		}

		artillery_brigade = {
			breakthrough = 0.10
		}
		

		path = {
			leads_to_tech = human_wave_offensive
			research_cost_coeff = 1
		}

		doctrine = yes
		research_cost = 3.6

		categories = {
			land_doctrine
			cat_mass_assault
		}


		folder = {
			name = land_doctrine_folder
			position = { x = 2 y = 12 }
		}

		ai_will_do = {
			factor = 20
		}

		ai_research_weights = {
			industry = 2.0
		}

		on_research_complete = {
			if = {
				limit = { original_tag = SOV }
				army_experience = 200
			}
		}
	}

	human_wave_offensive = {

		xp_research_type = army
		xp_research_cost = 100
		xp_research_bonus = 0.5


		conscription = 0.015

		infantry = {
			combat_width = -0.4
		}

		path = {
			leads_to_tech = guerilla_warfare
			research_cost_coeff = 1
		}

		doctrine = yes
		research_cost = 3.6

		categories = {
			land_doctrine
			cat_mass_assault
		}


		folder = {
			name = land_doctrine_folder
			position = { x = 2 y = 15 }
		}

		ai_will_do = {
			factor = 20
		}

		ai_research_weights = {
			infantry_weapons = 1.0
			industry = 2.0
		}

		on_research_complete = {
			if = {
				limit = { original_tag = SOV }
				army_experience = 200
			}

			country_event = gduevents.45
		}
	}

	guerilla_warfare = {

		xp_research_type = army
		xp_research_cost = 100
		xp_research_bonus = 0.5

		path = {
			leads_to_tech = naval_invasion_tactics_MA
			research_cost_coeff = 1
		}

		out_of_supply_factor = -0.1
		category_army = {
			default_morale = 0.15
		}
		
		supply_consumption_factor = -0.15
		

		#partisan_effect = 0.2

		enable_tactic = tactic_backhand_blow
		enable_tactic = tactic_default_backhand_blow
		doctrine = yes
		research_cost = 3.6

		categories = {
			land_doctrine
			cat_mass_assault
		}

		folder = {
			name = land_doctrine_folder
			position = { x = 2 y = 18 }
		}

		ai_will_do = {
			factor = 20
		}

		ai_research_weights = {
			industry = 2.0
		}

		on_research_complete = {
			if = {
				limit = { original_tag = SOV }
				army_experience = 200
			}
		}
	}














# naval invasion tactic doctrines


	naval_invasion_tactics_MW = {

		enable_tactic = tactic_advanced_naval_landing
		enable_tactic = tactic_multi_wave_invasion
		enable_tactic = tactic_storm_machine_gun_nests
		enable_tactic = tactic_clear_coastal_bunkers
		enable_tactic = tactic_basic_naval_invasion_attack

		doctrine = yes
		research_cost = 0.01

		categories = {
			land_doctrine
			cat_mobile_warfare
		}

		folder = {
			name = land_doctrine_folder
			position = { x = 0 y = 20 }
		}
	}

	MW_3rd_Right_1 = {

		xor={
			MW_3rd_Left_1
		}

		path = {
			leads_to_tech = MW_3rd_Right_2
			research_cost_coeff = 1
		}

		start_year = 1941

		max_dig_in = 2

		category_light_infantry = {
			max_organisation = 5		
			default_morale = 0.15
			defense = 0.1 
		}

		doctrine = yes
		research_cost = 3.6

		categories = {
			land_doctrine
			cat_mobile_warfare
		}

		folder = {
			name = land_doctrine_folder
			position = { x = 2 y = 22 }
		}
	}

	MW_3rd_Right_2 = {

		path = {
			leads_to_tech = MW_3rd_Right_3
			research_cost_coeff = 1
		}

		start_year = 1942

		anti_tank_brigade = {
			hard_attack = 0.1
			max_organisation = 5
			default_morale = 0.05
			supply_consumption_factor = -0.01			
		}
		artillery_brigade = {
			soft_attack = 0.05
			hard_attack = 0.05
			max_organisation = 5
			default_morale = 0.05
			supply_consumption_factor = -0.01
		}
		anti_air_brigade = {
			hard_attack = 0.25
			soft_attack = 0.15
			max_organisation = 5
			default_morale = 0.1
			supply_consumption_factor = -0.01			
		}
		category_light_infantry = {
			hard_attack = 0.1
			default_morale = 0.05
		}	

		doctrine = yes
		research_cost = 3.6

		categories = {
			land_doctrine
			cat_mobile_warfare
		}

		folder = {
			name = land_doctrine_folder
			position = { x = 2 y = 24 }
		}
	}

	MW_3rd_Right_3 = {

		path = {
			research_cost_coeff = 1
		}

		start_year = 1943

		category_light_infantry = {
			max_organisation = -3
			defense = 0.2
		}
		motorized = {
			max_organisation = -3
			defense = 0.1
			breakthrough = 0.2
		}
		mechanized = {
			max_organisation = -3
			defense = 0.1
			breakthrough = 0.2
		}		

		doctrine = yes
		research_cost = 3.6

		categories = {
			land_doctrine
			cat_mobile_warfare
		}

		folder = {
			name = land_doctrine_folder
			position = { x = 2 y = 26 }
		}
	}

	MW_3rd_Left_1 = {

		xor={
			MW_3rd_Right_1
		}

		path = {
			leads_to_tech = MW_3rd_Left_2
			research_cost_coeff = 1
		}

		start_year = 1941

		category_light_infantry = {
			max_organisation = 5	
			default_morale = 0.1
		}

		category_army = {
			fort = {
				attack = 0.05
			}		
		}
		flamethrower = {
			fort = {
				attack = 0.05
			}			
		}

		on_research_complete = {
			custom_effect_tooltip = MW_3rd_Left_1_details
		}
		
		doctrine = yes
		research_cost = 3.6

		categories = {
			land_doctrine
			cat_mobile_warfare
		}

		folder = {
			name = land_doctrine_folder
			position = { x = -2 y = 22 }
		}
	}

	MW_3rd_Left_2 = {

		path = {
			leads_to_tech = MW_3rd_Left_3
			research_cost_coeff = 1
		}

		start_year = 1942

		category_light_infantry = {
			max_organisation = 5
			breakthrough = 0.1
		}
		amphibious_invasion_defence = 0.05
		amphibious_invasion = 0.05

		doctrine = yes
		research_cost = 3.6

		categories = {
			land_doctrine
			cat_mobile_warfare
		}

		folder = {
			name = land_doctrine_folder
			position = { x = -2 y = 24 }
		}
	}

	MW_3rd_Left_3 = {

		path = {
			research_cost_coeff = 1
		}

		start_year = 1943

		category_all_armor = {
			amphibious = {
				attack = 0.05
			}
		}

		doctrine = yes
		research_cost = 3.6

		categories = {
			land_doctrine
			cat_mobile_warfare
		}

		on_research_complete = {
			custom_effect_tooltip = MW_3rd_Left_3_details
		}

		folder = {
			name = land_doctrine_folder
			position = { x = -2 y = 26 }
		}
	}

	naval_invasion_tactics_SF = {

		enable_tactic = tactic_advanced_naval_landing
		enable_tactic = tactic_multi_wave_invasion
		enable_tactic = tactic_storm_machine_gun_nests
		enable_tactic = tactic_clear_coastal_bunkers
		enable_tactic = tactic_basic_naval_invasion_attack

		doctrine = yes
		research_cost = 0.01

		categories = {
			land_doctrine
			cat_superior_firepower
		}

		folder = {
			name = land_doctrine_folder
			position = { x = 0 y = 20 }
		}
	}

	naval_invasion_tactics_GBP = {

		enable_tactic = tactic_advanced_naval_landing
		enable_tactic = tactic_multi_wave_invasion
		enable_tactic = tactic_storm_machine_gun_nests
		enable_tactic = tactic_clear_coastal_bunkers
		enable_tactic = tactic_basic_naval_invasion_attack
		
		doctrine = yes
		research_cost = 0.01

		categories = {
			land_doctrine
			cat_grand_battle_plan
		}

		folder = {
			name = land_doctrine_folder
			position = { x = 0 y = 20 }
		}
	}

	naval_invasion_tactics_MA = {

		enable_tactic = tactic_advanced_naval_landing
		enable_tactic = tactic_multi_wave_invasion
		enable_tactic = tactic_storm_machine_gun_nests
		enable_tactic = tactic_clear_coastal_bunkers
		enable_tactic = tactic_basic_naval_invasion_attack

		doctrine = yes
		research_cost = 0.01

		categories = {
			land_doctrine
			cat_mass_assault
		}

		folder = {
			name = land_doctrine_folder
			position = { x = 0 y = 20 }
		}
	}

}
